﻿{
    "questions": [
        {
            "question": "When a solution of silver (I) nitrate is saturated with hydrogen sulphide, a black precipitate forms which is",
            "hasAnswered": false,
            "selectedAnswer": "0",
            "correctAnswer": false,
            "containsImage": false,
            "imageURL": "null",
            "containsPassage": false,
            "passage": "null",
            "answers": [
                {
                    "answer": "H₂S",
                    "correct": false,
                    "selected": false
                },
                {
                    "answer": "Ag₂S",
                    "correct": true,
                    "selected": false
                },
                {
                    "answer": "PbS",
                    "correct": false,
                    "selected": false
                },
                {
                    "answer": "HNO₃",
                    "correct": false,
                    "selected": false
                }
            ]
        },
        {
            "question": "0.0075 mole of calcium trioxocarbonate (iv) is added to 0.015 mole of a solution of HCl. The volume of gas evolved at S.T.P is",
            "hasAnswered": false,
            "selectedAnswer": "0",
            "correctAnswer": false,
            "containsImage": false,
            "imageURL": "null",
            "containsPassage": false,
            "passage": "null",
            "answers": [
                {
                    "answer": "224cm³",
                    "correct": false,
                    "selected": false
                },
                {
                    "answer": "168cm³",
                    "correct": true,
                    "selected": false
                },
                {
                    "answer": "112cm³",
                    "correct": false,
                    "selected": false
                },
                {
                    "answer": "100cm³",
                    "correct": false,
                    "selected": false
                }
            ]
        },
        {
            "question": "The weakest attractive force that can be observed between two molecules is",
            "hasAnswered": false,
            "selectedAnswer": "0",
            "correctAnswer": false,
            "containsImage": false,
            "imageURL": "null",
            "containsPassage": false,
            "passage": "null",
            "answers": [
                {
                    "answer": "ionic",
                    "correct": false,
                    "selected": false
                },
                {
                    "answer": "covalent",
                    "correct": false,
                    "selected": false
                },
                {
                    "answer": "coordinates",
                    "correct": false,
                    "selected": false
                },
                {
                    "answer": "van der waals forces",
                    "correct": true,
                    "selected": false
                }
            ]
        },
        {
            "question": "Which quantum number divides shells into orbitals?",
            "hasAnswered": false,
            "selectedAnswer": "0",
            "correctAnswer": false,
            "containsImage": false,
            "imageURL": "null",
            "containsPassage": false,
            "passage": "null",
            "answers": [
                {
                    "answer": "Principal",
                    "correct": false,
                    "selected": false
                },
                {
                    "answer": "azimuthally",
                    "correct": true,
                    "selected": false
                },
                {
                    "answer": "magnetic",
                    "correct": false,
                    "selected": false
                },
                {
                    "answer": "spin",
                    "correct": false,
                    "selected": false
                }
            ]
        },
        {
            "question": "The major source of oxides of nitrogen is from the burning of",
            "hasAnswered": false,
            "selectedAnswer": "0",
            "correctAnswer": false,
            "containsImage": false,
            "imageURL": "null",
            "containsPassage": false,
            "passage": "null",
            "answers": [
                {
                    "answer": "coal",
                    "correct": true,
                    "selected": false
                },
                {
                    "answer": "wood",
                    "correct": false,
                    "selected": false
                },
                {
                    "answer": "fuel",
                    "correct": false,
                    "selected": false
                },
                {
                    "answer": "chlorofluorocarbons.",
                    "correct": false,
                    "selected": false
                }
            ]
        },
        {
            "question": "Cotton is almost pure",
            "hasAnswered": false,
            "selectedAnswer": "0",
            "correctAnswer": false,
            "containsImage": false,
            "imageURL": "null",
            "containsPassage": false,
            "passage": "null",
            "answers": [
                {
                    "answer": "starch",
                    "correct": false,
                    "selected": false
                },
                {
                    "answer": "protein",
                    "correct": false,
                    "selected": false
                },
                {
                    "answer": "animal fibre",
                    "correct": false,
                    "selected": false
                },
                {
                    "answer": "cellulose",
                    "correct": true,
                    "selected": false
                }
            ]
        },
        {
            "question": "Lucas reagent is used to test for",
            "hasAnswered": false,
            "selectedAnswer": "0",
            "correctAnswer": false,
            "containsImage": false,
            "imageURL": "null",
            "containsPassage": false,
            "passage": "null",
            "answers": [
                {
                    "answer": "alkanes",
                    "correct": false,
                    "selected": false
                },
                {
                    "answer": "alkanoic acids",
                    "correct": false,
                    "selected": false
                },
                {
                    "answer": "alkanols",
                    "correct": true,
                    "selected": false
                },
                {
                    "answer": "amines",
                    "correct": false,
                    "selected": false
                }
            ]
        },
        {
            "question": "An element X forms the following compounds with chlorine: XCl₄, XCl₃, XCl₂. This illustrate the",
            "hasAnswered": false,
            "selectedAnswer": "0",
            "correctAnswer": false,
            "containsImage": false,
            "imageURL": "null",
            "containsPassage": false,
            "passage": "null",
            "answers": [
                {
                    "answer": "law of multiple proportions",
                    "correct": false,
                    "selected": false
                },
                {
                    "answer": "law of definite proportions",
                    "correct": true,
                    "selected": false
                },
                {
                    "answer": "law of conservation of mass",
                    "correct": false,
                    "selected": false
                },
                {
                    "answer": "law of chemical proportions",
                    "correct": false,
                    "selected": false
                }
            ]
        },
        {
            "question": "The process of changing one element into another is called",
            "hasAnswered": false,
            "selectedAnswer": "0",
            "correctAnswer": false,
            "containsImage": false,
            "imageURL": "null",
            "containsPassage": false,
            "passage": "null",
            "answers": [ 
                {
                    "answer": "Radioisotope",
                    "correct": false,
                    "selected": false
                },
                {
                    "answer": "radioactivity dating ",
                    "correct": false,
                    "selected": false
                },
                {
                    "answer": "transmutation ",
                    "correct": true,
                    "selected": false
                },
                {
                    "answer": "nuclear reaction.",
                    "correct": false,
                    "selected": false
                }
             ]
        },
        {
            "question": "The shapes of CO₂, H₂O and CH₄ respectively are",
            "hasAnswered": false,
            "selectedAnswer": "0",
            "correctAnswer": false,
            "containsImage": false,
            "imageURL": "null",
            "containsPassage": false,
            "passage": "null",
            "answers": [ 
                {
                    "answer": "bent, linear and tetrahedral",
                    "correct": false,
                    "selected": false
                },
                {
                    "answer": "bent, tetrahedral and linear",
                    "correct": false,
                    "selected": false
                },
                {
                    "answer": "tetrahedral, linear and bent",
                    "correct": false,
                    "selected": false
                },
                {
                    "answer": "linear, bent and tetrahedral",
                    "correct": true,
                    "selected": false
                }
             ]
        },
        {
            "question": "What is the basicity of tetraoxosulphate (VI) acid?",
            "hasAnswered": false,
            "selectedAnswer": "0",
            "correctAnswer": false,
            "containsImage": false,
            "imageURL": "null",
            "containsPassage": false,
            "passage": "null",
            "answers": [ 
                {
                    "answer": "2",
                    "correct": true,
                    "selected": false
                },
                {
                    "answer": "1",
                    "correct": false,
                    "selected": false
                },
                {
                    "answer": "3",
                    "correct": false,
                    "selected": false
                },
                {
                    "answer": "4",
                    "correct": false,
                    "selected": false
                }
             ]
        },
        {
            "question": "____________can be used to test for reducing sugars",
            "hasAnswered": false,
            "selectedAnswer": "0",
            "correctAnswer": false,
            "containsImage": false,
            "imageURL": "null",
            "containsPassage": false,
            "passage": "null",
            "answers": [ 
                {
                    "answer": "Iodine solution",
                    "correct": false,
                    "selected": false
                },
                {
                    "answer": "bromine water ",
                    "correct": false,
                    "selected": false
                },
                {
                    "answer": "Fehling’s solution ",
                    "correct": true,
                    "selected": false
                },
                {
                    "answer": "de-ionized water",
                    "correct": false,
                    "selected": false
                }
             ]
        },
        {
            "question": "Organic Chemistry is the branch of Chemistry that deals with ____ and ____",
            "hasAnswered": false,
            "selectedAnswer": "0",
            "correctAnswer": false,
            "containsImage": false,
            "imageURL": "null",
            "containsPassage": false,
            "passage": "null",
            "answers": [
                {
                    "answer": "Hydrogen & oxygen",
                    "correct": false,
                    "selected": false
                },
                {
                    "answer": "Carbon & Carbon",
                    "correct": false,
                    "selected": false
                },
                {
                    "answer": "Carbon & Sulphur",
                    "correct": false,
                    "selected": false
                },
                {
                    "answer": "Carbon & Hydrogen",
                    "correct": true,
                    "selected": false
                }
            ]
        },
        {
            "question": "The movement of liquid molecules from the surface of the liquid to the gaseous phase above it is known as",
            "hasAnswered": false,
            "selectedAnswer": "0",
            "correctAnswer": false,
            "containsImage": false,
            "imageURL": "null",
            "containsPassage": false,
            "passage": "null",
            "answers": [
                {
                    "answer": "Brownian motion",
                    "correct": true,
                    "selected": false
                },
                {
                    "answer": "Zig Zag Motion",
                    "correct": false,
                    "selected": false
                },
                {
                    "answer": "evaporation",
                    "correct": false,
                    "selected": false
                },
                {
                    "answer": "liquefaction",
                    "correct": false,
                    "selected": false
                }
            ]
        },
        {
            "question": "Which of the following is an acidic salt?",
            "hasAnswered": false,
            "selectedAnswer": "0",
            "correctAnswer": false,
            "containsImage": false,
            "imageURL": "null",
            "containsPassage": false,
            "passage": "null",
            "answers": [
                {
                    "answer": "NaHSO₄",
                    "correct": true,
                    "selected": false
                },
                {
                    "answer": "Na2SO₄",
                    "correct": false,
                    "selected": false
                },
                {
                    "answer": "CH₃CO₂Na",
                    "correct": false,
                    "selected": false
                },
                {
                    "answer": "Na₂S",
                    "correct": false,
                    "selected": false
                }
            ]
        },
        {
            "question": "Given that the molecular mass of iron is 56 and that of oxygen is 16, how many moles of iron (III) oxide will be contained in 1kg of the compound?",
            "hasAnswered": false,
            "selectedAnswer": "0",
            "correctAnswer": false,
            "containsImage": false,
            "imageURL": "null",
            "containsPassage": false,
            "passage": "null",
            "answers": [
                {
                    "answer": "12.5moles",
                    "correct": false,
                    "selected": false
                },
                {
                    "answer": "0.625moles",
                    "correct": false,
                    "selected": false
                },
                {
                    "answer": "25moles",
                    "correct": false,
                    "selected": false
                },
                {
                    "answer": "6.25moles",
                    "correct": true,
                    "selected": false
                }
            ]
        },
        {
            "question": "3.0g of a mixture of potassium carbonate and potassium chloride were dissolved in a 250cm³ standard flask.25cm³ of this solution required 40.00cm³ of 0.01M HCl for neutralization. What is the percentage by weight of k₂CO₃ in the mixture? (k = 39, O = 16, C = 12)",
            "hasAnswered": false,
            "selectedAnswer": "0",
            "correctAnswer": false,
            "containsImage": false,
            "imageURL": "null",
            "containsPassage": false,
            "passage": "null",
            "answers": [
                {
                    "answer": "92",
                    "correct": true,
                    "selected": false
                },
                {
                    "answer": "89",
                    "correct": false,
                    "selected": false
                },
                {
                    "answer": "72",
                    "correct": false,
                    "selected": false
                },
                {
                    "answer": "82",
                    "correct": false,
                    "selected": false
                }
            ]
        },
        {
            "question": "Catalytic hydrogenation of benzene produces",
            "hasAnswered": false,
            "selectedAnswer": "0",
            "correctAnswer": false,
            "containsImage": false,
            "imageURL": "null",
            "containsPassage": false,
            "passage": "null",
            "answers": [
                {
                    "answer": "KClO₃",
                    "correct": false,
                    "selected": false
                },
                {
                    "answer": "Cl₂O₇",
                    "correct": false,
                    "selected": false
                },
                {
                    "answer": "ZnCl₂",
                    "correct": false,
                    "selected": false
                },
                {
                    "answer": "NaClO",
                    "correct": true,
                    "selected": false
                }
            ]
        },
        {
            "question": "The carbon atoms on ethane are",
            "hasAnswered": false,
            "selectedAnswer": "0",
            "correctAnswer": false,
            "containsImage": false,
            "imageURL": "null",
            "containsPassage": false,
            "passage": "null",
            "answers": [
                {
                    "answer": "Sp² hybridised",
                    "correct": false,
                    "selected": false
                },
                {
                    "answer": "SP hybridized",
                    "correct": false,
                    "selected": false
                },
                {
                    "answer": "SP₃ hybridised",
                    "correct": true,
                    "selected": false
                },
                {
                    "answer": "SP₂d hybridized",
                    "correct": false,
                    "selected": false
                }
            ]
        },
        {
            "question": "At 25⁰C and 1atm, a gas occupies a volume of 1.50dm³. What volume will it occupy at 100 ⁰C and 1atm?",
            "hasAnswered": false,
            "selectedAnswer": "0",
            "correctAnswer": false,
            "containsImage": false,
            "imageURL": "null",
            "containsPassage": false,
            "passage": "null",
            "answers": [
                {
                    "answer": "1.88dm₃",
                    "correct": true,
                    "selected": false
                },
                {
                    "answer": "6.00dm₃",
                    "correct": false,
                    "selected": false
                },
                {
                    "answer": "18.80dm₃",
                    "correct": false,
                    "selected": false
                },
                {
                    "answer": "60.0dm₃",
                    "correct": false,
                    "selected": false
                }
            ]
        },
        {
            "question": "A current of 4.0 amperes was passed through copper (II) tetraoxosulphate (IV) solution for one hour using copper electrodes. What was the mass of copper deposited? (Cu =64, IF = 96500C)",
            "hasAnswered": false,
            "selectedAnswer": "0",
            "correctAnswer": false,
            "containsImage": false,
            "imageURL": "null",
            "containsPassage": false,
            "passage": "null",
            "answers": [
                {
                    "answer": "3.2g",
                    "correct": false,
                    "selected": false
                },
                {
                    "answer": "4.8g",
                    "correct": false,
                    "selected": false
                },
                {
                    "answer": "6.4g",
                    "correct": false,
                    "selected": false
                },
                {
                    "answer": "96",
                    "correct": true,
                    "selected": false
                }
            ]
        },
        {
            "question": "Pauli exclusion principle is related to",
            "hasAnswered": false,
            "selectedAnswer": "0",
            "correctAnswer": false,
            "containsImage": false,
            "imageURL": "null",
            "containsPassage": false,
            "passage": "null",
            "answers": [
                {
                    "answer": "quantum numbers of electrons",
                    "correct": false,
                    "selected": false
                },
                {
                    "answer": "reversibility of equilibrium reactions",
                    "correct": true,
                    "selected": false
                },
                {
                    "answer": "electronegativity values of elements",
                    "correct": false,
                    "selected": false
                },
                {
                    "answer": "collision theory of reactions rate",
                    "correct": false,
                    "selected": false
                }
            ]
        },
        {
            "question": "Esterification of propane 1, 2, 3-triol and unsaturated higher carboxylic acids will produce",
            "hasAnswered": false,
            "selectedAnswer": "0",
            "correctAnswer": false,
            "containsImage": false,
            "imageURL": "null",
            "containsPassage": false,
            "passage": "null",
            "answers": [
                {
                    "answer": "fats",
                    "correct": false,
                    "selected": false
                },
                {
                    "answer": "soap",
                    "correct": false,
                    "selected": false
                },
                {
                    "answer": "alkanols",
                    "correct": false,
                    "selected": false
                },
                {
                    "answer": "methyl propanoate",
                    "correct": true,
                    "selected": false
                }
            ]
        },
        {
            "question": "The greenhouse effect is a climatic condition associated with the presence of excess",
            "hasAnswered": false,
            "selectedAnswer": "0",
            "correctAnswer": false,
            "containsImage": false,
            "imageURL": "null",
            "containsPassage": false,
            "passage": "null",
            "answers": [
                {
                    "answer": "CO₂",
                    "correct": true,
                    "selected": false
                },
                {
                    "answer": "H₂S",
                    "correct": false,
                    "selected": false
                },
                {
                    "answer": "NO",
                    "correct": false,
                    "selected": false
                },
                {
                    "answer": "NH₃",
                    "correct": false,
                    "selected": false
                }
            ]
        },
        {
            "question": "The metal extracted from cassiterite is",
            "hasAnswered": false,
            "selectedAnswer": "0",
            "correctAnswer": false,
            "containsImage": false,
            "imageURL": "null",
            "containsPassage": false,
            "passage": "null",
            "answers": [
                {
                    "answer": "calcium",
                    "correct": false,
                    "selected": false
                },
                {
                    "answer": "copper",
                    "correct": false,
                    "selected": false
                },
                {
                    "answer": "tin",
                    "correct": true,
                    "selected": false
                },
                {
                    "answer": "sodium",
                    "correct": false,
                    "selected": false
                }
            ]
        },
        {
            "question": "The following are uses of sulphur except",
            "hasAnswered": false,
            "selectedAnswer": "0",
            "correctAnswer": false,
            "containsImage": false,
            "imageURL": "null",
            "containsPassage": false,
            "passage": "null",
            "answers": [
                {
                    "answer": "vulcanization of rubber",
                    "correct": false,
                    "selected": false
                },
                {
                    "answer": "manufacture of dyes",
                    "correct": false,
                    "selected": false
                },
                {
                    "answer": "coating of steel to prevent rusting",
                    "correct": true,
                    "selected": false
                },
                {
                    "answer": "manufacture of tetraoxosulphate (VI) acid",
                    "correct": false,
                    "selected": false
                }
            ]
        },
        {
            "question": "Equilibrium is sad to be attained in a reversible reaction when",
            "hasAnswered": false,
            "selectedAnswer": "0",
            "correctAnswer": false,
            "containsImage": false,
            "imageURL": "null",
            "containsPassage": false,
            "passage": "null",
            "answers": [
                {
                    "answer": "all the reactants have been used up",
                    "correct": false,
                    "selected": false
                },
                {
                    "answer": "all the products have been formed",
                    "correct": false,
                    "selected": false
                },
                {
                    "answer": "there is no further change in temperature",
                    "correct": true,
                    "selected": false
                },
                {
                    "answer": "the rate of forward and backward reactions are equal",
                    "correct": false,
                    "selected": false
                }
            ]
        },
        {
            "question": "The following uses radioactive isotopes except for",
            "hasAnswered": false,
            "selectedAnswer": "0",
            "correctAnswer": false,
            "containsImage": false,
            "imageURL": "null",
            "containsPassage": false,
            "passage": "null",
            "answers": [
                {
                    "answer": "sterilization of medical equipment",
                    "correct": false,
                    "selected": false
                },
                {
                    "answer": "tracing reaction paths",
                    "correct": false,
                    "selected": false
                },
                {
                    "answer": "dating elements",
                    "correct": false,
                    "selected": false
                },
                {
                    "answer": "determining equilibrium positions",
                    "correct": true,
                    "selected": false
                }
            ]
        },
        {
            "question": "Which of the following is needed to produce a slag during the extraction of iron in the blast furnace?",
            "hasAnswered": false,
            "selectedAnswer": "0",
            "correctAnswer": false,
            "containsImage": false,
            "imageURL": "null",
            "containsPassage": false,
            "passage": "null",
            "answers": [
                {
                    "answer": "cryolite",
                    "correct": false,
                    "selected": false
                },
                {
                    "answer": "limestone",
                    "correct": true,
                    "selected": false
                },
                {
                    "answer": "carbon",
                    "correct": false,
                    "selected": false
                },
                {
                    "answer": "sulphur",
                    "correct": false,
                    "selected": false
                }
            ]
        },
        {
            "question": "  Calcium atom ionizes by",
            "hasAnswered": false,
            "selectedAnswer": "0",
            "correctAnswer": false,
            "containsImage": false,
            "imageURL": "null",
            "containsPassage": false,
            "passage": "null",
            "answers": [
                {
                    "answer": "gaining two electrons",
                    "correct": false,
                    "selected": false
                },
                {
                    "answer": "losing two electrons",
                    "correct": true,
                    "selected": false
                },
                {
                    "answer": "sharing two electrons",
                    "correct": false,
                    "selected": false
                },
                {
                    "answer": "gaining two proton",
                    "correct": false,
                    "selected": false
                }
            ]
        },
        {
            "question": "In the Periodic Table, the elements that lose electrons most readily belong to",
            "hasAnswered": false,
            "selectedAnswer": "0",
            "correctAnswer": false,
            "containsImage": false,
            "imageURL": "null",
            "containsPassage": false,
            "passage": "null",
            "answers": [
                {
                    "answer": "group IA",
                    "correct": true,
                    "selected": false
                },
                {
                    "answer": "group IIA",
                    "correct": false,
                    "selected": false
                },
                {
                    "answer": "group IIIA",
                    "correct": false,
                    "selected": false
                },
                {
                    "answer": "group VIIA",
                    "correct": false,
                    "selected": false
                }
            ]
        },
        {
            "question": "Which of the following properties increases down a group in the Periodic Table",
            "hasAnswered": false,
            "selectedAnswer": "0",
            "correctAnswer": false,
            "containsImage": false,
            "imageURL": "null",
            "containsPassage": false,
            "passage": "null",
            "answers": [
                {
                    "answer": "atomic radius",
                    "correct": true,
                    "selected": false
                },
                {
                    "answer": "electronegativity",
                    "correct": false,
                    "selected": false
                },
                {
                    "answer": "electron affinity",
                    "correct": false,
                    "selected": false
                },
                {
                    "answer": "ionization energy",
                    "correct": false,
                    "selected": false
                }
            ]
        },
        {
            "question": "Which of the following types of reactions takes place between C₂H₄ and the halogens?",
            "hasAnswered": false,
            "selectedAnswer": "0",
            "correctAnswer": false,
            "containsImage": false,
            "imageURL": "null",
            "containsPassage": false,
            "passage": "null",
            "answers": [
                {
                    "answer": "Substitution",
                    "correct": false,
                    "selected": false
                },
                {
                    "answer": "Addition",
                    "correct": true,
                    "selected": false
                },
                {
                    "answer": "polymerization",
                    "correct": false,
                    "selected": false
                },
                {
                    "answer": "Oxidation",
                    "correct": false,
                    "selected": false
                }
            ]
        },
        {
            "question": "An amphoteric oxide is an",
            "hasAnswered": false,
            "selectedAnswer": "0",
            "correctAnswer": false,
            "containsImage": false,
            "imageURL": "null",
            "containsPassage": false,
            "passage": "null",
            "answers": [
                {
                    "answer": "amorphorous oxide of a metal",
                    "correct": false,
                    "selected": false
                },
                {
                    "answer": "amorphorous oxide of a non-metal",
                    "correct": false,
                    "selected": false
                },
                {
                    "answer": "Oxide that is insoluble in water",
                    "correct": false,
                    "selected": false
                },
                {
                    "answer": "Oxide that behaves as a base as well as an acid",
                    "correct": true,
                    "selected": false
                }
            ]
        },
        {
            "question": "What weight of sodium hydroxide is required to make 500cm₃ of 0.2M solution?",
            "hasAnswered": false,
            "selectedAnswer": "0",
            "correctAnswer": false,
            "containsImage": false,
            "imageURL": "null",
            "containsPassage": false,
            "passage": "null",
            "answers": [
                {
                    "answer": "40g",
                    "correct": false,
                    "selected": false
                },
                {
                    "answer": "20g",
                    "correct": false,
                    "selected": false
                },
                {
                    "answer": "10g",
                    "correct": true,
                    "selected": false
                },
                {
                    "answer": "4g",
                    "correct": false,
                    "selected": false
                }
            ]
        },
        {
            "question": "The IUPAC names for the compounds CH₃COOH and CH₂ = CH₂ are respectively;",
            "hasAnswered": false,
            "selectedAnswer": "0",
            "correctAnswer": false,
            "containsImage": false,
            "imageURL": "null",
            "containsPassage": false,
            "passage": "null",
            "answers": [
            {
                "answer": "acetic acid and ethane",
                "correct": true,
                "selected": false
            },
            {
                "answer": "ethanoic acid and ethene",
                "correct": false,
                "selected": false
            },
            {
                "answer": "methanoic acid and ethylene",
                "correct": false,
                "selected": false
            },
            {
                "answer": "acetic acid and ethene",
                "correct": false,
                "selected": false
            }
        ]
        },
        {
            "question": "The ideal gas equation is ",
            "hasAnswered": false,
            "selectedAnswer": "0",
            "correctAnswer": false,
            "containsImage": false,
            "imageURL": "null",
            "containsPassage": false,
            "passage": "null",
            "answers": [ 
                {
                    "answer": "P=nRT ",
                    "correct": true,
                    "selected": false
                },
                {
                    "answer": "PR =nVT ",
                    "correct": false,
                    "selected": false
                },
                {
                    "answer": "PV =gRT ",
                    "correct": false,
                    "selected": false
                },
                {
                    "answer": " V=kT  ",
                    "correct": false,
                    "selected": false
                }
             ]
        },
        {
            "question": "200 cm³ of air was passed over heated copper in a syringe several times to produce copper (II) oxide. When cooled, the final volume of air recorded was 158 cm³. Estimate the percentage of  oxygen in the air.",
            "hasAnswered": false,
            "selectedAnswer": "0",
            "correctAnswer": false,
            "containsImage": false,
            "imageURL": "null",
            "containsPassage": false,
            "passage": "null",
            "answers": [ 
                {
                    "answer": "31%",
                    "correct": false,
                    "selected": false
                },
                {
                    "answer": "27%",
                    "correct": false,
                    "selected": false
                },
                {
                    "answer": "21%",
                    "correct": true,
                    "selected": false
                },
                {
                    "answer": "19%",
                    "correct": false,
                    "selected": false
                }
             ]
        },
        {
            "question": "30cm³ of oxygen at 10 atmosphere pressures is placed in a 20dm³ container. Calculate the new pressure if temperature is kept constant. ",
            "hasAnswered": false,
            "selectedAnswer": "0",
            "correctAnswer": false,
            "containsImage": false,
            "imageURL": "null",
            "containsPassage": false,
            "passage": "null",
            "answers": [ 
                {
                    "answer": "6.7 atm",
                    "correct": false,
                    "selected": false
                },
                {
                    "answer": "15.0 atm",
                    "correct": true,
                    "selected": false
                },
                {
                    "answer": "60",
                    "correct": false,
                    "selected": false
                },
                {
                    "answer": "66",
                    "correct": false,
                    "selected": false
                }
             ]
        },
        {
            "question": "Bond dissociation energy of 500 KJ mol⁻¹ may  be  assigned to ",
            "hasAnswered": false,
            "selectedAnswer": "0",
            "correctAnswer": false,
            "containsImage": false,
            "imageURL": "null",
            "containsPassage": false,
            "passage": "null",
            "answers": [ 
                {
                    "answer": "ionic bonding ",
                    "correct": true,
                    "selected": false
                },
                {
                    "answer": "covalent bonding ",
                    "correct": false,
                    "selected": false
                },
                {
                    "answer": "hydrogen bonding",
                    "correct": false,
                    "selected": false
                },
                {
                    "answer": "metallic bonding",
                    "correct": false,
                    "selected": false
                }
             ]
        },
        {
            "question": "A mixture of iron and sulphur can be separated by dissolving the mixture in ______",
            "hasAnswered": false,
            "selectedAnswer": "0",
            "correctAnswer": false,
            "containsImage": false,
            "imageURL": "null",
            "containsPassage": false,
            "passage": "null",
            "answers": [ 
                {
                    "answer": "Steam",
                    "correct": false,
                    "selected": false
                },
                {
                    "answer": "dilute hydrochloric acid",
                    "correct": true,
                    "selected": false
                },
                {
                    "answer": "dilute sodium hydroxide",
                    "correct": false,
                    "selected": false
                },
                {
                    "answer": "benzene",
                    "correct": false,
                    "selected": false
                }
             ]
        },
        {
            "question": "CH₄ has this geometry: ",
            "hasAnswered": false,
            "selectedAnswer": "0",
            "correctAnswer": false,
            "containsImage": false,
            "imageURL": "null",
            "containsPassage": false,
            "passage": "null",
            "answers": [ {
                "answer": "trigonal ",
                "correct": false,
                "selected": false
            },
            {
                "answer": "planar",
                "correct": false,
                "selected": false
            },
            {
                "answer": "tetrahedral",
                "correct": true,
                "selected": false
            },
            {
                "answer": "octahedral",
                "correct": false,
                "selected": false
            }
         ]
        },
        {
            "question": "Chlorine, consisting of two isotopes of mass numbers 35 and 37, has an atomic mass of 35.5. The relative abundance of the isotope  of mass number 37 is ",
            "hasAnswered": false,
            "selectedAnswer": "0",
            "correctAnswer": false,
            "containsImage": false,
            "imageURL": "null",
            "containsPassage": false,
            "passage": "null",
            "answers": [ 
                {
                    "answer": "20",
                    "correct": false,
                    "selected": false
                },
                {
                    "answer": "25",
                    "correct": true,
                    "selected": false
                },
                {
                    "answer": "50",
                    "correct": false,
                    "selected": false
                },
                {
                    "answer": "75",
                    "correct": false,
                    "selected": false
                }
             ]
        },
        {
            "question": "The group that oxygen belongs to is collectively called",
            "hasAnswered": false,
            "selectedAnswer": "0",
            "correctAnswer": false,
            "containsImage": false,
            "imageURL": "null",
            "containsPassage": false,
            "passage": "null",
            "answers": [
                {
                    "answer": "Allotropes",
                    "correct": false,
                    "selected": false
                },
                {
                    "answer": "Halogens",
                    "correct": false,
                    "selected": false
                },
                {
                    "answer": "Chalcogens",
                    "correct": true,
                    "selected": false
                },
                {
                    "answer": "alkenes",
                    "correct": false,
                    "selected": false
                }
              ]
        },
        {
            "question": "The partial pressure of oxygen in a sample of air is 500 mmHg. If the total Pr pressure 780 mmHg, what is the mole fraction of the oxygen?",
            "hasAnswered": false,
            "selectedAnswer": "0",
            "correctAnswer": false,
            "containsImage": false,
            "imageURL": "null",
            "containsPassage": false,
            "passage": "null",
            "answers": [ 
                {
                    "answer": "0.64",
                    "correct": true,
                    "selected": false
                },
                {
                    "answer": "5.73",
                    "correct": false,
                    "selected": false
                },
                {
                    "answer": "1.56",
                    "correct": false,
                    "selected": false
                },
                {
                    "answer": "0.7",
                    "correct": false,
                    "selected": false
                }
             ]
        },
        {
            "question": "The periodic classification of the elements is an arrangement of the elements in order of their",
            "hasAnswered": false,
            "selectedAnswer": "0",
            "correctAnswer": false,
            "containsImage": false,
            "imageURL": "null",
            "containsPassage": false,
            "passage": "null",
            "answers": [  
                {
                    "answer": "atomic weights",
                    "correct": false,
                    "selected": false
                },
                {
                    "answer": "isotopic weights",
                    "correct": false,
                    "selected": false
                },
                {
                    "answer": "molecular weights",
                    "correct": false,
                    "selected": false
                },
                {
                    "answer": "atomic numbers",
                    "correct": true,
                    "selected": false
                }
            ]
        },
        {
            "question": "0.499g of CuSO₄.XH₂O when heated to constant weight gave a residue of 0.346g. What is the value of X?",
            "hasAnswered": false,
            "selectedAnswer": "0",
            "correctAnswer": false,
            "containsImage": false,
            "imageURL": "null",
            "containsPassage": false,
            "passage": "null",
            "answers": [
                {
                    "answer": "2",
                    "correct": false,
                    "selected": false
                },
                {
                    "answer": "3",
                    "correct": false,
                    "selected": false
                },
                {
                    "answer": "5",
                    "correct": false,
                    "selected": false
                },
                {
                    "answer": "4",
                    "correct": true,
                    "selected": false
                }
            ]
        },
        {
            "question": "The principal constituents of natural gas is",
            "hasAnswered": false,
            "selectedAnswer": "0",
            "correctAnswer": false,
            "containsImage": false,
            "imageURL": "null",
            "containsPassage": false,
            "passage": "null",
            "answers": [
                {
                    "answer": "methane",
                    "correct": true,
                    "selected": false
                },
                {
                    "answer": "ethane",
                    "correct": false,
                    "selected": false
                },
                {
                    "answer": "propane",
                    "correct": false,
                    "selected": false
                },
                {
                    "answer": "butane",
                    "correct": false,
                    "selected": false
                }
            ]
        },
        {
            "question": "Which of the following gases can be collected by the method of downward delivery?",
            "hasAnswered": false,
            "selectedAnswer": "0",
            "correctAnswer": false,
            "containsImage": false,
            "imageURL": "null",
            "containsPassage": false,
            "passage": "null",
            "answers": [
                {
                    "answer": "chlorine",
                    "correct": true,
                    "selected": false
                },
                {
                    "answer": "oxygen",
                    "correct": false,
                    "selected": false
                },
                {
                    "answer": "ammonia",
                    "correct": false,
                    "selected": false
                },
                {
                    "answer": "hydrogen",
                    "correct": false,
                    "selected": false
                }
            ]
        },
        {
            "question": "A mixture of sugar and sulphur can be separated by",
            "hasAnswered": false,
            "selectedAnswer": "0",
            "correctAnswer": false,
            "containsImage": false,
            "imageURL": "null",
            "containsPassage": false,
            "passage": "null",
            "answers": [
                {
                    "answer": "dissolution in water, evaporation and filtration",
                    "correct": false,
                    "selected": false
                },
                {
                    "answer": "filtration, evaporation and dissolution in water",
                    "correct": false,
                    "selected": false
                },
                {
                    "answer": "dissolution in water, filtration and evaporation",
                    "correct": true,
                    "selected": false
                },
                {
                    "answer": "evaporation, dissolution in water and filtration",
                    "correct": false,
                    "selected": false
                }
            ]
        },
        {
            "question": "The percentage of water of crystallization in ZnSO₄.7H₂O is",
            "hasAnswered": false,
            "selectedAnswer": "0",
            "correctAnswer": false,
            "containsImage": false,
            "imageURL": "null",
            "containsPassage": false,
            "passage": "null",
            "answers": [
                {
                    "answer": "33%",
                    "correct": false,
                    "selected": false
                },
                {
                    "answer": "44%",
                    "correct": true,
                    "selected": false
                },
                {
                    "answer": "55%",
                    "correct": false,
                    "selected": false
                },
                {
                    "answer": "87%",
                    "correct": false,
                    "selected": false
                }
            ]
        },
      
        {
            "question": "The molecular formula of a common organic laboratory anesthetic is",
            "hasAnswered": false,
            "selectedAnswer": "0",
            "correctAnswer": false,
            "containsImage": false,
            "imageURL": "null",
            "containsPassage": false,
            "passage": "null",
            "answers": [
                {
                    "answer": "CHCl₃",
                    "correct": true,
                    "selected": false
                },
                {
                    "answer": "CHI₃",
                    "correct": false,
                    "selected": false
                },
                {
                    "answer": "CCl₄",
                    "correct": false,
                    "selected": false
                },
                {
                    "answer": "CHF₃",
                    "correct": false,
                    "selected": false
                }
            ]
        },
        {
            "question": "Organic molecules that have the suffix-ene are unsaturated hydrocarbons that have",
            "hasAnswered": false,
            "selectedAnswer": "0",
            "correctAnswer": false,
            "containsImage": false,
            "imageURL": "null",
            "containsPassage": false,
            "passage": "null",
            "answers": [
                {
                    "answer": "a single bond",
                    "correct": false,
                    "selected": false
                },
                {
                    "answer": "double bond",
                    "correct": true,
                    "selected": false
                },
                {
                    "answer": "a triple bond",
                    "correct": false,
                    "selected": false
                },
                {
                    "answer": "an ionic bond",
                    "correct": false,
                    "selected": false
                }
            ]
        },
        {
            "question": " Copper metal dissolves in concentrated trioxonitrate (v) acid with the resultant evolution of",
            "hasAnswered": false,
            "selectedAnswer": "0",
            "correctAnswer": false,
            "containsImage": false,
            "imageURL": "null",
            "containsPassage": false,
            "passage": "null",
            "answers": [
                {
                    "answer": "CO₂",
                    "correct": false,
                    "selected": false
                },
                {
                    "answer": "SO₂",
                    "correct": false,
                    "selected": false
                },
                {
                    "answer": "NO₂",
                    "correct": true,
                    "selected": false
                },
                {
                    "answer": "CO",
                    "correct": false,
                    "selected": false
                }
            ]
        },
        {
            "question": "Which of the following is not a member of the homologous series of the paraffins?",
            "hasAnswered": false,
            "selectedAnswer": "0",
            "correctAnswer": false,
            "containsImage": false,
            "imageURL": "null",
            "containsPassage": false,
            "passage": "null",
            "answers": [
                {
                    "answer": "C₃H₈",
                    "correct": false,
                    "selected": false
                },
                {
                    "answer": "C₅H₁₂",
                    "correct": false,
                    "selected": false
                },
                {
                    "answer": "C₁₅H₃₂",
                    "correct": false,
                    "selected": false
                },
                {
                    "answer": "C₂₄H₄₈",
                    "correct": true,
                    "selected": false
                }
            ]
        },
        {
            "question": "Element P, Q, R and S have 6, 11, 15 and 16 electrons respectively, therefore,",
            "hasAnswered": false,
            "selectedAnswer": "0",
            "correctAnswer": false,
            "containsImage": false,
            "imageURL": "null",
            "containsPassage": false,
            "passage": "null",
            "answers": [
                {
                    "answer": "p will form an ionic bond with R",
                    "correct": false,
                    "selected": false
                },
                {
                    "answer": "R will form an electrovalent bond with S",
                    "correct": false,
                    "selected": false
                },
                {
                    "answer": "Q will form a covalent bond with S",
                    "correct": false,
                    "selected": false
                },
                {
                    "answer": "Q will form an electrovalent bond with S",
                    "correct": true,
                    "selected": false
                }
            ]
        },
        {
            "question": "A gaseous mixture of 80.0g of oxygen and 56.0g of nitrogen has a total pressure of 1.8atm. The partial pressure of oxygen in the mixture is",
            "hasAnswered": false,
            "selectedAnswer": "0",
            "correctAnswer": false,
            "containsImage": false,
            "imageURL": "null",
            "containsPassage": false,
            "passage": "null",
            "answers": [
                {
                    "answer": "0.8atm",
                    "correct": false,
                    "selected": false
                },
                {
                    "answer": "1.0atm",
                    "correct": true,
                    "selected": false
                },
                {
                    "answer": "1.2atm",
                    "correct": false,
                    "selected": false
                },
                {
                    "answer": "1.4atm",
                    "correct": false,
                    "selected": false
                }
            ]
        },
        {
            "question": " Palm wine turns sour with time because",
            "hasAnswered": false,
            "selectedAnswer": "0",
            "correctAnswer": false,
            "containsImage": false,
            "imageURL": "null",
            "containsPassage": false,
            "passage": "null",
            "answers": [
                {
                    "answer": "the sugar content is converted into alcohol",
                    "correct": false,
                    "selected": false
                },
                {
                    "answer": "the CO₂ formed during the fermentation process has a sour taste",
                    "correct": false,
                    "selected": false
                },
                {
                    "answer": "it is commonly adulterated by the tappers and sellers",
                    "correct": false,
                    "selected": false
                },
                {
                    "answer": "microbiological activity results in the production of organic acids within it.",
                    "correct": true,
                    "selected": false
                }
            ]
        },
        {
            "question": "Alkanals can be differentiated from alkanones by reaction with",
            "hasAnswered": false,
            "selectedAnswer": "0",
            "correctAnswer": false,
            "containsImage": false,
            "imageURL": "null",
            "containsPassage": false,
            "passage": "null",
            "answers": [
                {
                    "answer": "2, 4 – dinitrophenylhydrazine",
                    "correct": false,
                    "selected": false
                },
                {
                    "answer": "hydrogen cyanide",
                    "correct": false,
                    "selected": false
                },
                {
                    "answer": "sodium hydrogen sulphite",
                    "correct": false,
                    "selected": false
                },
                {
                    "answer": "Tollen’s reagent",
                    "correct": true,
                    "selected": false
                }
            ]
        },
        {
            "question": "The following are uses of sulphur except",
            "hasAnswered": false,
            "selectedAnswer": "0",
            "correctAnswer": false,
            "containsImage": false,
            "imageURL": "null",
            "containsPassage": false,
            "passage": "null",
            "answers": [
                {
                    "answer": "vulcanization of rubber",
                    "correct": false,
                    "selected": false
                },
                {
                    "answer": "manufacture of dyes",
                    "correct": false,
                    "selected": false
                },
                {
                    "answer": "coating of steel to prevent rusting",
                    "correct": false,
                    "selected": false
                },
                {
                    "answer": "manufacture of tetraoxosulphate (VI) acid.",
                    "correct": true,
                    "selected": false
                }
            ]
        }
    ]
}