﻿{
    "questions": [
        {
            "question": "What is the dimension for velocity?",
            "hasAnswered": false,
            "selectedAnswer": "0",
            "correctAnswer": false,
            "containsImage": false,
            "imageURL": "null",
            "containsPassage": false,
            "passage": "null",
            "answers": [ 
                {
                    "answer": "ML",
                    "correct": false,
                    "selected": false
                },
                {
                    "answer": "LT-1",
                    "correct": true,
                    "selected": false
                },
                {
                    "answer": "L-2",
                    "correct": false,
                    "selected": false
                },
                {
                    "answer": "M3 L-1",
                    "correct": false,
                    "selected": false
                }
             ]
        },
        {
            "question": "A car moving with a velocity of 20m/s at 30⁰  to the horizontal, what is the components of the velocity along the horizontal",
            "hasAnswered": false,
            "selectedAnswer": "0",
            "correctAnswer": false,
            "containsImage": false,
            "imageURL": "null",
            "containsPassage": false,
            "passage": "null",
            "answers": [ 
                {
                    "answer": "17.3m/s",
                    "correct": true,
                    "selected": false
                },
                {
                    "answer": "20m/s",
                    "correct": false,
                    "selected": false
                },
                {
                    "answer": "21m/s",
                    "correct": false,
                    "selected": false
                },
                {
                    "answer": "34m/s",
                    "correct": false,
                    "selected": false
                }
             ]
        },
        {
            "question": "If a moving car X collides head–on with a moving car Y in the opposite direction, the conservation of momentum states that:",
            "hasAnswered": false,
            "selectedAnswer": "0",
            "correctAnswer": false,
            "containsImage": false,
            "imageURL": "null",
            "containsPassage": false,
            "passage": "null",
            "answers": [  
                {
                    "answer": "the final momentum of X= final of Y",
                    "correct": false,
                    "selected": false
                },
                {
                    "answer": "total momentum of X and Y is reversed",
                    "correct": false,
                    "selected": false
                },
                {
                    "answer": "total momentum of X and Y stays constant",
                    "correct": true,
                    "selected": false
                },
                {
                    "answer": "initial and final momentum of Y is the same",
                    "correct": false,
                    "selected": false
                }
            ]
        },
        {
            "question": "A bullet of mass 20g travelling horizontally at 100m/s, embeds itself in the centre of a block of wood 1kg which is suspended by light vertical string 1m, calculate the velocity",
            "hasAnswered": false,
            "selectedAnswer": "0",
            "correctAnswer": false,
            "containsImage": false,
            "imageURL": "null",
            "containsPassage": false,
            "passage": "null",
            "answers": [ 
                {
                    "answer": "51/100 m/s",
                    "correct": false,
                    "selected": false
                },
                {
                    "answer": "100/51 m/s",
                    "correct": true,
                    "selected": false
                },
                {
                    "answer": "21/50 m/s",
                    "correct": false,
                    "selected": false
                },
                {
                    "answer": "23/51 m/s",
                    "correct": false,
                    "selected": false
                }
             ]
        },
        {
            "question": "Starting from rest a car of mass 1000kg accelerates steadily to 20m/s in 10 sec , what is the average power developed?",
            "hasAnswered": false,
            "selectedAnswer": "0",
            "correctAnswer": false,
            "containsImage": false,
            "imageURL": "null",
            "containsPassage": false,
            "passage": "null",
            "answers": [ 
                {
                    "answer": "0.2kw",
                    "correct": false,
                    "selected": false
                },
                {
                    "answer": "10kw",
                    "correct": false,
                    "selected": false
                },
                {
                    "answer": "15kw",
                    "correct": false,
                    "selected": false
                },
                {
                    "answer": "20kw",
                    "correct": true,
                    "selected": false
                }
             ]
        },
        {
            "question": "A gun of mass 0.1kg has a bullet of mass 0.1kg , the bullet laves the piston when fired at a velocity of 200m/s , find the final velocity",
            "hasAnswered": false,
            "selectedAnswer": "0",
            "correctAnswer": false,
            "containsImage": false,
            "imageURL": "null",
            "containsPassage": false,
            "passage": "null",
            "answers": [ 
                {
                    "answer": "20m/s",
                    "correct": true,
                    "selected": false
                },
                {
                    "answer": "30m/s",
                    "correct": false,
                    "selected": false
                },
                {
                    "answer": "45m/s",
                    "correct": false,
                    "selected": false
                },
                {
                    "answer": "15m/s",
                    "correct": false,
                    "selected": false
                }
             ]
        },
        {
            "question": "Which of the following pairs has one vector and one scalar quantity?",
            "hasAnswered": false,
            "selectedAnswer": "0",
            "correctAnswer": false,
            "containsImage": false,
            "imageURL": "null",
            "containsPassage": false,
            "passage": "null",
            "answers": [ 
                {
                    "answer": "displacement, acceleration",
                    "correct": false,
                    "selected": false
                },
                {
                    "answer": "potential energy, work",
                    "correct": false,
                    "selected": false
                },
                {
                    "answer": "kinetic energy, force",
                    "correct": true,
                    "selected": false
                },
                {
                    "answer": "velocity, momentum",
                    "correct": false,
                    "selected": false
                }
             ]
        },
        {
            "question": "If p is the momentum of an object, then the expression P2/m has the same units as",
            "hasAnswered": false,
            "selectedAnswer": "0",
            "correctAnswer": false,
            "containsImage": false,
            "imageURL": "null",
            "containsPassage": false,
            "passage": "null",
            "answers": [
                {
                    "answer": "acceleration",
                    "correct": false,
                    "selected": false
                },
                {
                    "answer": "Energy",
                    "correct": true,
                    "selected": false
                },
                {
                    "answer": "force",
                    "correct": false,
                    "selected": false
                },
                {
                    "answer": "impulse",
                    "correct": false,
                    "selected": false
                }
              ]
        },
        
        {
            "question": "A ship floating in clear water of density 1000kg moves to sea-water of density 1050kg where it floats, the upthrust on the ship then",
            "hasAnswered": false,
            "selectedAnswer": "0",
            "correctAnswer": false,
            "containsImage": false,
            "imageURL": "null",
            "containsPassage": false,
            "passage": "null",
            "answers": [
                {
                    "answer": "stays constant",
                    "correct": true,
                    "selected": false
                },
                {
                    "answer": "increases",
                    "correct": false,
                    "selected": false
                },
                {
                    "answer": "increases by 0.05 times",
                    "correct": false,
                    "selected": false
                },
                {
                    "answer": "decreases by 0.05 times",
                    "correct": false,
                    "selected": false
                }
              ]
        },
        {
            "question": "In Coloumb’s law, the force between two point charges is proportional to \r\n 1. the square of the distance between them \r\n 2. product of charges  \r\n 3.permitivity of the medium",
            "hasAnswered": false,
            "selectedAnswer": "0",
            "correctAnswer": false,
            "containsImage": false,
            "imageURL": "null",
            "containsPassage": false,
            "passage": "null",
            "answers": [ 
                {
                    "answer": "1 and 2",
                    "correct": false,
                    "selected": false
                },
                {
                    "answer": "1 and 3",
                    "correct": false,
                    "selected": false
                },
                {
                    "answer": "1 only",
                    "correct": false,
                    "selected": false
                },
                {
                    "answer": "2 only",
                    "correct": true,
                    "selected": false
                }
             ]
        },
        {
            "question": "If two equal charges each 1C were separated in air by distance of 1km, what would be the force between them",
            "hasAnswered": false,
            "selectedAnswer": "0",
            "correctAnswer": false,
            "containsImage": false,
            "imageURL": "null",
            "containsPassage": false,
            "passage": "null",
            "answers": [ 
                {
                    "answer": "2KN",
                    "correct": false,
                    "selected": false
                },
                {
                    "answer": "3KN",
                    "correct": false,
                    "selected": false
                },
                {
                    "answer": "9KN",
                    "correct": true,
                    "selected": false
                },
                {
                    "answer": "10KN",
                    "correct": false,
                    "selected": false
                },
                {
                    "answer": "4KN",
                    "correct": false,
                    "selected": false
                }
             ]
        },
        {
            "question": "Two positive point charges of 12µC and 8µC are 10cm apart, find the work done in bringing them 4cm closer that is they are 6cm.  Take 1/4πϵϵo = 9x10⁹ Mf⁻¹",
            "hasAnswered": false,
            "selectedAnswer": "0",
            "correctAnswer": false,
            "containsImage": false,
            "imageURL": "null",
            "containsPassage": false,
            "passage": "null",
            "answers": [ 
                {
                    "answer": "5.8J",
                    "correct": true,
                    "selected": false
                },
                {
                    "answer": "4.8J",
                    "correct": false,
                    "selected": false
                },
                {
                    "answer": "6.8J",
                    "correct": false,
                    "selected": false
                },
                {
                    "answer": "2.8J",
                    "correct": false,
                    "selected": false
                }
             ]
        },
        {
            "question": "A steady current of 0.5A flows through a wire, how much charge passes through the wire in one minute?",
            "hasAnswered": false,
            "selectedAnswer": "0",
            "correctAnswer": false,
            "containsImage": false,
            "imageURL": "null",
            "containsPassage": false,
            "passage": "null",
            "answers": [  
                {
                    "answer": "32C",
                    "correct": false,
                    "selected": false
                },
                {
                    "answer": "23C",
                    "correct": false,
                    "selected": false
                },
                {
                    "answer": "12C",
                    "correct": false,
                    "selected": false
                },
                {
                    "answer": "30C",
                    "correct": true,
                    "selected": false
                }
            ]
        },
        {
            "question": "The main evidence that light rays travel in a straight line is that  \r\n1. Incident, reflected and the normal lie in the same plane,\r\n2. Pin-hole camera \r\n3. ecllipse of the sun\r\n4. Divergence of light rays",
            "hasAnswered": false,
            "selectedAnswer": "0",
            "correctAnswer": false,
            "containsImage": false,
            "imageURL": "null",
            "containsPassage": false,
            "passage": "null",
            "answers": [
                {
                    "answer": "1 only",
                    "correct": false,
                    "selected": false
                },
                {
                    "answer": "2 Only",
                    "correct": false,
                    "selected": false
                },
                {
                    "answer": "4 only",
                    "correct": false,
                    "selected": false
                },
                {
                    "answer": "1, 2, and 3 only",
                    "correct": true,
                    "selected": false
                }
              ]
        },
        {
            "question": "Determine the potential difference between the ends of a wire of resistance 5&Omega; if 72oC passes through it per minute.",
            "hasAnswered": false,
            "selectedAnswer": "0",
            "correctAnswer": false,
            "containsImage": false,
            "imageURL": "null",
            "containsPassage": false,
            "passage": "null",
            "answers": [ 
                {
                    "answer": "70V",
                    "correct": false,
                    "selected": false
                },
                {
                    "answer": "60V",
                    "correct": true,
                    "selected": false
                },
                {
                    "answer": "80V",
                    "correct": false,
                    "selected": false
                },
                {
                    "answer": "85V",
                    "correct": false,
                    "selected": false
                }
             ]
        },
        {
            "question": "For an AC circuit at resonance it means:",
            "hasAnswered": false,
            "selectedAnswer": "0",
            "correctAnswer": false,
            "containsImage": false,
            "imageURL": "null",
            "containsPassage": false,
            "passage": "null",
            "answers": [ 
                {
                    "answer": "XL = XC",
                    "correct": true,
                    "selected": false
                },
                {
                    "answer": "X=L",
                    "correct": false,
                    "selected": false
                },
                {
                    "answer": "R=C",
                    "correct": false,
                    "selected": false
                },
                {
                    "answer": "R/C=0",
                    "correct": false,
                    "selected": false
                }
             ]
        },
        {
            "question": "The image obtained with a converging lens is upright and three times the length of the object, if the focal length of the lens is 20cm Calculate the object distance",
            "hasAnswered": false,
            "selectedAnswer": "0",
            "correctAnswer": false,
            "containsImage": false,
            "imageURL": "null",
            "containsPassage": false,
            "passage": "null",
            "answers": [ 
                {
                    "answer": "13.3cm",
                    "correct": true,
                    "selected": false
                },
                {
                    "answer": "33.1cm",
                    "correct": false,
                    "selected": false
                },
                {
                    "answer": "40.3cm",
                    "correct": false,
                    "selected": false
                },
                {
                    "answer": "34.9cm",
                    "correct": false,
                    "selected": false
                }
             ]
        },
        {
            "question": "Which of the followings are the characteristics of light rays: \r\n1) reflection\r\n2) refraction\r\n3) dispersion\r\n4) condition                                                                                                                                                                                                                                  5) chromination",
            "hasAnswered": false,
            "selectedAnswer": "0",
            "correctAnswer": false,
            "containsImage": false,
            "imageURL": "null",
            "containsPassage": false,
            "passage": "null",
            "answers": [ 
                {
                    "answer": "1 and 2",
                    "correct": false,
                    "selected": false
                },
                {
                    "answer": "2 and 3",
                    "correct": false,
                    "selected": false
                },
                {
                    "answer": "1, 2 and 3",
                    "correct": true,
                    "selected": false
                },
                {
                    "answer": "3, 4 and 5",
                    "correct": false,
                    "selected": false
                }
             ]
        },
        {
            "question": "The two commonly used lenses in an Astronomical telescope are:",
            "hasAnswered": false,
            "selectedAnswer": "0",
            "correctAnswer": false,
            "containsImage": false,
            "imageURL": "null",
            "containsPassage": false,
            "passage": "null",
            "answers": [
                {
                    "answer": "objective, diverging",
                    "correct": false,
                    "selected": false
                },
                {
                    "answer": "objective, eye-piece",
                    "correct": true,
                    "selected": false
                },
                {
                    "answer": "objective, converging",
                    "correct": false,
                    "selected": false
                },
                {
                    "answer": "None",
                    "correct": false,
                    "selected": false
                }
              ]
        },
        {
            "question": "In dispersion of light rays which is odd out of followings:                                                                                                                                                                                    1. It involves separation of colours\r\n2. Separation is due to differences in speeds\r\n3. All colours travel with the same speed in vacuum\r\n4. no speed is involved",
            "hasAnswered": false,
            "selectedAnswer": "0",
            "correctAnswer": false,
            "containsImage": false,
            "imageURL": "null",
            "containsPassage": false,
            "passage": "null",
            "answers": [ 
                {
                    "answer": "1 only",
                    "correct": false,
                    "selected": false
                },
                {
                    "answer": "2 only",
                    "correct": false,
                    "selected": false
                },
                {
                    "answer": "1, 2, 3and 4only",
                    "correct": false,
                    "selected": false
                },
                {
                    "answer": "1,2 and 3",
                    "correct": true,
                    "selected": false
                }
             ]
        },
        {
            "question": "Sound waves and light waves cannot both be",
            "hasAnswered": false,
            "selectedAnswer": "0",
            "correctAnswer": false,
            "containsImage": false,
            "imageURL": "null",
            "containsPassage": false,
            "passage": "null",
            "answers": [ 
                {
                    "answer": "refracted",
                    "correct": false,
                    "selected": false
                },
                {
                    "answer": "made to produce an interference",
                    "correct": false,
                    "selected": false
                },
                {
                    "answer": "polarised",
                    "correct": true,
                    "selected": false
                },
                {
                    "answer": "diffracted",
                    "correct": false,
                    "selected": false
                }
             ]
        },
        {
            "question": "Which of the statements below are correct about threshold wavelength of a metal                                                                                                              1. increases with frequency of light\r\n2. decreases with frequency of light\r\n3. Increases with light intensity",
            "hasAnswered": false,
            "selectedAnswer": "0",
            "correctAnswer": false,
            "containsImage": false,
            "imageURL": "null",
            "containsPassage": false,
            "passage": "null",
            "answers": [ 
                {
                    "answer": "1 only",
                    "correct": false,
                    "selected": false
                },
                {
                    "answer": "3 only",
                    "correct": false,
                    "selected": false
                },
                {
                    "answer": "1, 2 and3only",
                    "correct": false,
                    "selected": false
                },
                {
                    "answer": "None of the above",
                    "correct": true,
                    "selected": false
                }
             ]
        },
        {
            "question": "A ball is projected from the ground at an angle of 30⁰ with the horizontal at an initial speed of 40 ms-Ignoring air friction, calculate the time it will take the ball to strike the ground.(Take acceleration due to gravity g = 10 ms⁻²).",
            "hasAnswered": false,
            "selectedAnswer": "0",
            "correctAnswer": false,
            "containsImage": false,
            "imageURL": "null",
            "containsPassage": false,
            "passage": "null",
            "answers": [ 
                {
                    "answer": "2 s",
                    "correct": false,
                    "selected": false
                },
                {
                    "answer": "3 s",
                    "correct": false,
                    "selected": false
                },
                {
                    "answer": "4 s",
                    "correct": true,
                    "selected": false
                },
                {
                    "answer": "5 s",
                    "correct": false,
                    "selected": false
                }
             ]
        },
        {
            "question": "Light of wavelength 450nm is shone on to the surface of a metal of work function 3.2x10⁻¹⁹J, the maximum energy of emitted electron in 10⁻¹⁹J is.",
            "hasAnswered": false,
            "selectedAnswer": "0",
            "correctAnswer": false,
            "containsImage": false,
            "imageURL": "null",
            "containsPassage": false,
            "passage": "null",
            "answers": [
                {
                    "answer": "1.2",
                    "correct": true,
                    "selected": false
                },
                {
                    "answer": "2.4",
                    "correct": false,
                    "selected": false
                },
                {
                    "answer": "2.8",
                    "correct": false,
                    "selected": false
                },
                {
                    "answer": "3.2",
                    "correct": false,
                    "selected": false
                }
              ]
        },
        {
            "question": "A woman weighs 500 N and stand on a weighing balance in an elevator. If the elevator accelerates downwards at 1.2 ms⁻², the reading of the balance is [g = 10 ms⁻²]",
            "hasAnswered": false,
            "selectedAnswer": "0",
            "correctAnswer": false,
            "containsImage": false,
            "imageURL": "null",
            "containsPassage": false,
            "passage": "null",
            "answers": [ 
                {
                    "answer": "400 N",
                    "correct": false,
                    "selected": false
                },
                {
                    "answer": "440 N",
                    "correct": true,
                    "selected": false
                },
                {
                    "answer": "540 N",
                    "correct": false,
                    "selected": false
                },
                {
                    "answer": "600 N",
                    "correct": false,
                    "selected": false
                }
             ]
        },
        {
            "question": "The type of radiation that does not have effect with electric or magnetic field is",
            "hasAnswered": false,
            "selectedAnswer": "0",
            "correctAnswer": false,
            "containsImage": false,
            "imageURL": "null",
            "containsPassage": false,
            "passage": "null",
            "answers": [  
                {
                    "answer": "gamma rays",
                    "correct": true,
                    "selected": false
                },
                {
                    "answer": "Alpha particles",
                    "correct": false,
                    "selected": false
                },
                {
                    "answer": "hydrogen",
                    "correct": false,
                    "selected": false
                },
                {
                    "answer": "Ceaseium",
                    "correct": false,
                    "selected": false
                }
            ]
        },
        {
            "question": "How much water at 0⁰C is needed to cool 0.5 kg of water at 80⁰C down 20⁰C?",
            "hasAnswered": false,
            "selectedAnswer": "0",
            "correctAnswer": false,
            "containsImage": false,
            "imageURL": "null",
            "containsPassage": false,
            "passage": "null",
            "answers": [ 
                {
                    "answer": "1.0 kg",
                    "correct": false,
                    "selected": false
                },
                {
                    "answer": "1.5 kg",
                    "correct": true,
                    "selected": false
                },
                {
                    "answer": "2.0 kg",
                    "correct": false,
                    "selected": false
                },
                {
                    "answer": "2.5 kg",
                    "correct": false,
                    "selected": false
                }
             ]
        },
        {
            "question": "The electromagnetic radiation with the strongest penetrating power is",
            "hasAnswered": false,
            "selectedAnswer": "0",
            "correctAnswer": false,
            "containsImage": false,
            "imageURL": "null",
            "containsPassage": false,
            "passage": "null",
            "answers": [ 
                {
                    "answer": "Ceaseium",
                    "correct": false,
                    "selected": false
                },
                {
                    "answer": "Alpha particles",
                    "correct": false,
                    "selected": false
                },
                {
                    "answer": "hydrogen",
                    "correct": false,
                    "selected": false
                },
                {
                    "answer": "gamma rays",
                    "correct": true,
                    "selected": false
                }
             ]
        },
        {
            "question": "A ball is dropped from a roof at the same time as another ball is thrown upward from the roof. The two balls",
            "hasAnswered": false,
            "selectedAnswer": "0",
            "correctAnswer": false,
            "containsImage": false,
            "imageURL": "null",
            "containsPassage": false,
            "passage": "null",
            "answers": [ 
                {
                    "answer": "Have the same velocity when they reach the ground",
                    "correct": false,
                    "selected": false
                },
                {
                    "answer": "Have the same acceleration when they reach the ground",
                    "correct": true,
                    "selected": false
                },
                {
                    "answer": "Reach the ground at the same time",
                    "correct": false,
                    "selected": false
                },
                {
                    "answer": "None of the above",
                    "correct": false,
                    "selected": false
                }
             ]
        },
        {
            "question": "Which of the following particle is more strongly affected by magnetic field",
            "hasAnswered": false,
            "selectedAnswer": "0",
            "correctAnswer": false,
            "containsImage": false,
            "imageURL": "null",
            "containsPassage": false,
            "passage": "null",
            "answers": [ 
                {
                    "answer": "Apha",
                    "correct": false,
                    "selected": false
                },
                {
                    "answer": "beta",
                    "correct": true,
                    "selected": false
                },
                {
                    "answer": "gamma",
                    "correct": false,
                    "selected": false
                },
                {
                    "answer": "X-rays",
                    "correct": false,
                    "selected": false
                }
             ]
        },
        {
            "question": "A stone thrown upward has and acceleration that is",
            "hasAnswered": false,
            "selectedAnswer": "0",
            "correctAnswer": false,
            "containsImage": false,
            "imageURL": "null",
            "containsPassage": false,
            "passage": "null",
            "answers": [ 
                {
                    "answer": "the same as that of the stone thrown downward",
                    "correct": true,
                    "selected": false
                },
                {
                    "answer": "Greater than that of a stone thrown downward",
                    "correct": false,
                    "selected": false
                },
                {
                    "answer": "Zero until it reaches the highest point in its path",
                    "correct": false,
                    "selected": false
                },
                {
                    "answer": "None of the above",
                    "correct": false,
                    "selected": false
                }
             ]
        },
        {
            "question": "A car towing a trailer is accelerating on a level road. The car exerts a force on the trailer whose magnitude is",
            "hasAnswered": false,
            "selectedAnswer": "0",
            "correctAnswer": false,
            "containsImage": false,
            "imageURL": "null",
            "containsPassage": false,
            "passage": "null",
            "answers": [  
                {
                    "answer": "the same as that of the force the trailer exerts on the car",
                    "correct": true,
                    "selected": false
                },
                {
                    "answer": "the same as that of the force the road exerts on the trailer",
                    "correct": false,
                    "selected": false
                },
                {
                    "answer": "greater than that of the force the trailer exerts on the car",
                    "correct": false,
                    "selected": false
                },
                {
                    "answer": "None of the above",
                    "correct": false,
                    "selected": false
                }
            ]
        },
        {
            "question": "A solenoid has 2000 turns on its 40cm length. What is the magnetic field intensity at its centre if it carries a current of 5A?",
            "hasAnswered": false,
            "selectedAnswer": "0",
            "correctAnswer": false,
            "containsImage": false,
            "imageURL": "null",
            "containsPassage": false,
            "passage": "null",
            "answers": [ 
                {
                    "answer": "0.314A",
                    "correct": false,
                    "selected": false
                },
                {
                    "answer": "0.0314A",
                    "correct": true,
                    "selected": false
                },
                {
                    "answer": "314A",
                    "correct": false,
                    "selected": false
                },
                {
                    "answer": "31.4A",
                    "correct": false,
                    "selected": false
                }
             ]
        },
        {
            "question": "How long does a bicycle with an acceleration of 0.8m/s2 take to go from 4 to 12m/s?",
            "hasAnswered": false,
            "selectedAnswer": "0",
            "correctAnswer": false,
            "containsImage": false,
            "imageURL": "null",
            "containsPassage": false,
            "passage": "null",
            "answers": [
                {
                    "answer": "6.4s",
                    "correct": false,
                    "selected": false
                },
                {
                    "answer": "10s",
                    "correct": true,
                    "selected": false
                },
                {
                    "answer": "26s",
                    "correct": false,
                    "selected": false
                },
                {
                    "answer": "None of the above",
                    "correct": false,
                    "selected": false
                }
              ]
        },
        {
            "question": "A household refrigerator consumes electrical energy at the rate of 200W if the electricity cost 5k per kWh; calculate the cost (in naira) of operating the appliances for 30 days.",
            "hasAnswered": false,
            "selectedAnswer": "0",
            "correctAnswer": false,
            "containsImage": false,
            "imageURL": "null",
            "containsPassage": false,
            "passage": "null",
            "answers": [ 
                {
                    "answer": "7.2",
                    "correct": true,
                    "selected": false
                },
                {
                    "answer": "30",
                    "correct": false,
                    "selected": false
                },
                {
                    "answer": "33.33",
                    "correct": false,
                    "selected": false
                },
                {
                    "answer": "72",
                    "correct": false,
                    "selected": false
                }
             ]
        },
        {
            "question": "A stone is dropped from the top of a tall building and at the same time, another stone is thrown vertically upwards from the ground level with a velocity of 20m/s. The stones meet exactly 2s after their release.How tall is the building?",
            "hasAnswered": false,
            "selectedAnswer": "0",
            "correctAnswer": false,
            "containsImage": false,
            "imageURL": "null",
            "containsPassage": false,
            "passage": "null",
            "answers": [ 
                {
                    "answer": "50m",
                    "correct": false,
                    "selected": false
                },
                {
                    "answer": "70m",
                    "correct": false,
                    "selected": false
                },
                {
                    "answer": "40m",
                    "correct": true,
                    "selected": false
                },
                {
                    "answer": "None of the above",
                    "correct": false,
                    "selected": false
                }
             ]
        },
        {
            "question": "The resistivity of a metal such as copper increases with increasing temperature because",
            "hasAnswered": false,
            "selectedAnswer": "0",
            "correctAnswer": false,
            "containsImage": false,
            "imageURL": "null",
            "containsPassage": false,
            "passage": "null",
            "answers": [
                {
                    "answer": "the conduction electrons make more frequent collisions with the atoms of the metal",
                    "correct": true,
                    "selected": false
                },
                {
                    "answer": "the metal expands and offers more resistance to the flow of electrons",
                    "correct": false,
                    "selected": false
                },
                {
                    "answer": "it is more difficult to cause electrons to leave their parent atom",
                    "correct": false,
                    "selected": false
                },
                {
                    "answer": "the positive ions in the metal undergo more collisions with neutral atoms",
                    "correct": false,
                    "selected": false
                }
              ]
        },
        {
            "question": "At what respective values of x, y and z would the Newton’s be dimensionally equivalent to MᵡLᵞTᶻ",
            "hasAnswered": false,
            "selectedAnswer": "0",
            "correctAnswer": false,
            "containsImage": false,
            "imageURL": "null",
            "containsPassage": false,
            "passage": "null",
            "answers": [ 
                {
                    "answer": "-1, 1, 2",
                    "correct": false,
                    "selected": false
                },
                {
                    "answer": "1, 1,-2",
                    "correct": true,
                    "selected": false
                },
                {
                    "answer": "-1, -1, -2",
                    "correct": false,
                    "selected": false
                },
                {
                    "answer": false,
                    "correct": false,
                    "selected": false
                }
             ]
        },
        {
            "question": "A negatively charged rod is brought near the cap of an electroscope. The cap is earthed momentarily while the charge is near to it. The rod is then removed. Which statement is correct?",
            "hasAnswered": false,
            "selectedAnswer": "0",
            "correctAnswer": false,
            "containsImage": false,
            "imageURL": "null",
            "containsPassage": false,
            "passage": "null",
            "answers": [ 
                {
                    "answer": "The cap will be negatively charged and the leaf will be positively charged",
                    "correct": false,
                    "selected": false
                },
                {
                    "answer": "The cap and the leaf will be positively charged",
                    "correct": true,
                    "selected": false
                },
                {
                    "answer": "The cap and the leaf will be negatively charged",
                    "correct": false,
                    "selected": false
                },
                {
                    "answer": "The cap and the leaf will become not charged",
                    "correct": false,
                    "selected": false
                }
             ]
        },
        {
            "question": "If a source emits light at a frequency of 7 x 10¹⁴ Hz and the Planck’s constant h = 6.6 x 10⁻⁴³, the energy of one photon of this light is approximately equal to",
            "hasAnswered": false,
            "selectedAnswer": "0",
            "correctAnswer": false,
            "containsImage": false,
            "imageURL": "null",
            "containsPassage": false,
            "passage": "null",
            "answers": [
                {
                    "answer": "1 x 10⁻⁴⁸J",
                    "correct": false,
                    "selected": false
                },
                {
                    "answer": "4 x 10⁻¹⁹J",
                    "correct": true,
                    "selected": false
                },
                {
                    "answer": "   4.6 x 10¹⁰J",
                    "correct": false,
                    "selected": false
                },
                {
                    "answer": " 4.6 x 10¹⁹J",
                    "correct": false,
                    "selected": false
                }
              ]
        },
        {
            "question": "An electric bulb is rated 60W, 220V. Calculate the resistance of its filament when it is operating normally",
            "hasAnswered": false,
            "selectedAnswer": "0",
            "correctAnswer": false,
            "containsImage": false,
            "imageURL": "null",
            "containsPassage": false,
            "passage": "null",
            "answers": [ 
                {
                    "question": "296.7 ohms",
                    "correct": false,
                    "selected": false
                },
                {
                    "question": "400.0 ohms",
                    "correct": false,
                    "selected": false
                },
                {
                    "question": "512.2 ohms",
                    "correct": false,
                    "selected": false
                },
                {
                    "question": "806.7 ohms",
                    "correct": true,
                    "selected": false
                }
             ]
        },
        {
            "question": "A 1000W kettle and a 750W pressing iron are used togethe for 2.5 hours. If the cost of electricity is #5.00 per kWh, calculate the total cost involved",
            "hasAnswered": false,
            "selectedAnswer": "0",
            "correctAnswer": false,
            "containsImage": false,
            "imageURL": "null",
            "containsPassage": false,
            "passage": "null",
            "answers": [
                {
                    "question": "#2200.00 ",
                    "correct": false,
                    "selected": false
                },
                {
                    "question": "#220.00",
                    "correct": false,
                    "selected": false
                },
                {
                    "question": "#202.00",
                    "correct": false,
                    "selected": false
                },
                {
                    "question": "#22.00",
                    "correct": true,
                    "selected": false
                }
              ]
        },
        {
            "question": "A radioactive material of mass 80.0g decays to 10.0g in 6 years. Calculate its half-life",
            "hasAnswered": false,
            "selectedAnswer": "0",
            "correctAnswer": false,
            "containsImage": false,
            "imageURL": "null",
            "containsPassage": false,
            "passage": "null",
            "answers": [ 
                {
                    "question": "4 years",
                    "correct": false,
                    "selected": false
                },
                {
                    "question": "3 years",
                    "correct": false,
                    "selected": false
                },
                {
                    "question": "2 years",
                    "correct": true,
                    "selected": false
                },
                {
                    "question": "1 year",
                    "correct": false,
                    "selected": false
                }
             ]
        },
        {
            "question": "A radioactive substance has a half-life of 20 hours. What fraction of the original radioactive nuclei will remain after 80 hours?",
            "hasAnswered": false,
            "selectedAnswer": "0",
            "correctAnswer": false,
            "containsImage": false,
            "imageURL": "null",
            "containsPassage": false,
            "passage": "null",
            "answers": [ 
                {
                    "question": "1/32 ",
                    "correct": false,
                    "selected": false
                },
                {
                    "question": "1/16 ",
                    "correct": true,
                    "selected": false
                },
                {
                    "question": "1/8  ",
                    "correct": false,
                    "selected": false
                },
                {
                    "question": "1/4  ",
                    "correct": false,
                    "selected": false
                }
             ]
        },
        {
            "question": "A radioactive substance has half-life of 3 days. If a mass of 1.55g of this substance is left after decaying for 15 days, determine the original value of the mass.",
            "hasAnswered": false,
            "selectedAnswer": "0",
            "correctAnswer": false,
            "containsImage": false,
            "imageURL": "null",
            "containsPassage": false,
            "passage": "null",
            "answers": [ 
                
        {
            "question": "49.6g",
            "correct": true,
            "selected": false
        },
        {
            "question": "37.2g",
            "correct": false,
            "selected": false
        },
        {
            "question": "24.8g",
            "correct": false,
            "selected": false
        },
        {
            "question": "12.4g",
            "correct": false,
            "selected": false
        }
             ]
        },
        {
            "question": "A ball of mass 0.5kg moving at 10m/s collides with another ball of equal mass at rest. If the two balls move off together after the impact, calculate the common velocity.",
            "hasAnswered": false,
            "selectedAnswer": "0",
            "correctAnswer": false,
            "containsImage": false,
            "imageURL": "null",
            "containsPassage": false,
            "passage": "null",
            "answers": [ 
                {
                    "question": "0.2m/s",
                    "correct": false,
                    "selected": false
                },
                {
                    "question": "0.5m/s",
                    "correct": false,
                    "selected": false
                },
                {
                    "question": "5.0m/s",
                    "correct": true,
                    "selected": false
                },
                {
                    "question": "10.0m/s",
                    "correct": false,
                    "selected": false
                }
             ]
        },
        {
            "question": "A man starts from a point A and walks a distance of 3.0km due northeast to point B. From B he then walks 4.0km due southeast to point X. Calculate the shortest distance between A and X.",
            "hasAnswered": false,
            "selectedAnswer": "0",
            "correctAnswer": false,
            "containsImage": false,
            "imageURL": "null",
            "containsPassage": false,
            "passage": "null",
            "answers": [ 
                {
                    "question": "7.0km",
                    "correct": false,
                    "selected": false
                },
                {
                    "question": "6.5km",
                    "correct": false,
                    "selected": false
                },
                {
                    "question": "6.0km",
                    "correct": false,
                    "selected": false
                },
                {
                    "question": "5.0km",
                    "correct": true,
                    "selected": false
                }
             ]
        },
        {
            "question": "Two forces, whose resultant is 100N, are perpendicular to each other. If one of them makes an angle of 60° with the resultant, calculate its magnitude.",
            "hasAnswered": false,
            "selectedAnswer": "0",
            "correctAnswer": false,
            "containsImage": false,
            "imageURL": "null",
            "containsPassage": false,
            "passage": "null",
            "answers": [ 
                {
                    "question": "200.0N",
                    "correct": false,
                    "selected": false
                },
                {
                    "question": "173.2N",
                    "correct": false,
                    "selected": false
                },
                {
                    "question": "115.5N",
                    "correct": false,
                    "selected": false
                },
                {
                    "question": "50.0N",
                    "correct": true,
                    "selected": false
                }
             ]
        },
        {
            "question": "The blade of a ceiling fan rotating at 20rad/s makes 10 complete revolutions before decelerating to a stop. Calculate the average frequency.",
            "hasAnswered": false,
            "selectedAnswer": "0",
            "correctAnswer": false,
            "containsImage": false,
            "imageURL": "null",
            "containsPassage": false,
            "passage": "null",
            "answers": [ 
                {
                    "question": "100∏",
                    "correct": false,
                    "selected": false
                },
                {
                    "question": "∏/10",
                    "correct": false,
                    "selected": false
                },
                {
                    "question": "∏/100",
                    "correct": false,
                    "selected": false
                },
                {
                    "question": "10/∏",
                    "correct": true,
                    "selected": false
                }
             ]
        },
        {
            "question": "A gas has a volume of 546cm³ at 0°C, what is the volume of the gas at -100°C if its pressure remains constant?",
            "hasAnswered": false,
            "selectedAnswer": "0",
            "correctAnswer": false,
            "containsImage": false,
            "imageURL": "null",
            "containsPassage": false,
            "passage": "null",
            "answers": [  
                {
                    "question": "346cm³",
                    "correct": true,
                    "selected": false
                },
                {
                    "question": "446cm³",
                    "correct": false,
                    "selected": false
                },
                {
                    "question": "546cm³",
                    "correct": false,
                    "selected": false
                },
                {
                    "question": "646cm³",
                    "correct": false,
                    "selected": false
                }
            ]
        },
        {
            "question": "500cm³ of a gas is collectd at 0°C and at a pressure of 72.0cm of mercury. What is the volume of the gas at the same temperature and at a pressure of 76.0cm of mercury?",
            "hasAnswered": false,
            "selectedAnswer": "0",
            "correctAnswer": false,
            "containsImage": false,
            "imageURL": "null",
            "containsPassage": false,
            "passage": "null",
            "answers": [
                {
                    "question": "(76 × 500)/72 cm³",
                    "correct": false,
                    "selected": false
                },
                {
                    "question": "(72 × 500)/76 cm³",
                    "correct": true,
                    "selected": false
                },
                {
                    "question": "(76 × 76)/500 cm³",
                    "correct": false,
                    "selected": false
                },
                {
                    "question": "76/(72 × 500) cm³",
                    "correct": false,
                    "selected": false
                }
              ]
        },
        {
            "question": "A metal rod of length 100cm is heated through 100°C, calculate the change in length of the rod. [Linear expansivity of the material of the rod is 3 × 10¯⁵K¯¹]",
            "hasAnswered": false,
            "selectedAnswer": "0",
            "correctAnswer": false,
            "containsImage": false,
            "imageURL": "null",
            "containsPassage": false,
            "passage": "null",
            "answers": [  
                {
                    "question": "4mm",
                    "correct": false,
                    "selected": false
                },
                {
                    "question": "3mm",
                    "correct": true,
                    "selected": false
                },
                {
                    "question": "2mm",
                    "correct": false,
                    "selected": false
                },
                {
                    "question": "1mm",
                    "correct": false,
                    "selected": false
                }
            ]
        },
        {
            "question": "The speed of light in air and water are 3.0 x 10⁸ m/s and 2.25 x 10⁸ m/s respectively. Calculate the critical angle for water when light travels from water to air",
            "hasAnswered": false,
            "selectedAnswer": "0",
            "correctAnswer": false,
            "containsImage": false,
            "imageURL": "null",
            "containsPassage": false,
            "passage": "null",
            "answers": [ 
                {
                    "question": "26.3°",
                    "correct": false,
                    "selected": false
                },
                {
                    "question": "24.2°",
                    "correct": false,
                    "selected": false
                },
                {
                    "question": "45.0°",
                    "correct": false,
                    "selected": false
                },
                {
                    "question": "48.6°",
                    "correct": true,
                    "selected": false
                }
             ]
        },
        {
            "question": "An object is placed 10.0cm from the focus of a converging lens. The image is formed on the other side, 12.0cm away from the second focus. Calculate the focal length of the lens.",
            "hasAnswered": false,
            "selectedAnswer": "0",
            "correctAnswer": false,
            "containsImage": false,
            "imageURL": "null",
            "containsPassage": false,
            "passage": "null",
            "answers": [  
                {
                    "question": "10.9cm",
                    "correct": true,
                    "selected": false
                },
                {
                    "question": "12.9cm",
                    "correct": false,
                    "selected": false
                },
                {
                    "question": "15.0cm",
                    "correct": false,
                    "selected": false
                },
                {
                    "question": "20.0cm",
                    "correct": false,
                    "selected": false
                }
            ]
        },
        {
            "question": "A boy standing some distance from the foot of a tall cliff claps his hands and hears an echo 0.5s later. If the speed of sound is 340m/s, how far is he from the cliff?",
            "hasAnswered": false,
            "selectedAnswer": "0",
            "correctAnswer": false,
            "containsImage": false,
            "imageURL": "null",
            "containsPassage": false,
            "passage": "null",
            "answers": [  
                {
                    "question": "17m",
                    "correct": false,
                    "selected": false
                },
                {
                    "question": "34m",
                    "correct": false,
                    "selected": false
                },
                {
                    "question": "85m",
                    "correct": true,
                    "selected": false
                },
                {
                    "question": "170m",
                    "correct": false,
                    "selected": false
                }
            ]
        },
        {
            "question": "In a ripple tank experiment, a vibrating plate is used to generate ripples in the water. If the distance between two successive troughs is3.5cm and the wave travels a distance of 31.5cm in 1.5s, calculate the frequency of the vibrator.",
            "hasAnswered": false,
            "selectedAnswer": "0",
            "correctAnswer": false,
            "containsImage": false,
            "imageURL": "null",
            "containsPassage": false,
            "passage": "null",
            "answers": [
                {
                    "question": "3.0Hz",
                    "correct": false,
                    "selected": false
                },
                {
                    "question": "6.0Hz",
                    "correct": true,
                    "selected": false
                },
                {
                    "question": "12.0Hz",
                    "correct": false,
                    "selected": false
                },
                {
                    "question": "27.0Hz",
                    "correct": false,
                    "selected": false
                }
              ]
        },
        {
            "question": "A simple microscope forms an image 10cm from an eye close to the lens. If the object is 6cm from the eye, calculate the focal length of the lens.",
            "hasAnswered": false,
            "selectedAnswer": "0",
            "correctAnswer": false,
            "containsImage": false,
            "imageURL": "null",
            "containsPassage": false,
            "passage": "null",
            "answers": [ 
                {
                    "question": "3.75cm",
                    "correct": true,
                    "selected": false
                },
                {
                    "question": "4.00cm",
                    "correct": false,
                    "selected": false
                },
                {
                    "question": "15.00cm",
                    "correct": false,
                    "selected": false
                },
                {
                    "question": "16.00cm",
                    "correct": false,
                    "selected": false
                }
             ]
        },
        {
            "question": "A wave of wavelength 0.30mtravels 900m in 3.0s, calculate its frequency.",
            "hasAnswered": false,
            "selectedAnswer": "0",
            "correctAnswer": false,
            "containsImage": false,
            "imageURL": "null",
            "containsPassage": false,
            "passage": "null",
            "answers": [ 
                {
                    "question": "68.0Hz",
                    "correct": false,
                    "selected": false
                },
                {
                    "question": "225.0Hz",
                    "correct": false,
                    "selected": false
                },
                {
                    "question": "270.0Hz",
                    "correct": false,
                    "selected": false
                },
                {
                    "question": "1000.0Hz",
                    "correct": true,
                    "selected": false
                }
             ]
        },
        {
            "question": "Calculate the critical angle of a medium of refractive index 1.60",
            "hasAnswered": false,
            "selectedAnswer": "0",
            "correctAnswer": false,
            "containsImage": false,
            "imageURL": "null",
            "containsPassage": false,
            "passage": "null",
            "answers": [ 
                {
                    "question": "58.0°",
                    "correct": false,
                    "selected": false
                },
                {
                    "question": "51.3°",
                    "correct": false,
                    "selected": false
                },
                {
                    "question": "38.7°",
                    "correct": true,
                    "selected": false
                },
                {
                    "question": "32.0°",
                    "correct": false,
                    "selected": false
                }
             ]
        },
        {
            "question": "Two parallell capacitors 3μF and 4μF are connected in series with a 2μF capacitor. Calculate the effective capacitance of the circiut",
            "hasAnswered": false,
            "selectedAnswer": "0",
            "correctAnswer": false,
            "containsImage": false,
            "imageURL": "null",
            "containsPassage": false,
            "passage": "null",
            "answers": [ 
                {
                    "question": "1.56μF",
                    "correct": true,
                    "selected": false
                },
                {
                    "question": "3.00μF",
                    "correct": false,
                    "selected": false
                },
                {
                    "question": "3.71μF",
                    "correct": false,
                    "selected": false
                },
                {
                    "question": "9.00μF",
                    "correct": false,
                    "selected": false
                }
             ]
        }
    ]
}