{
    "questions": [
        {
            "question": "A rightward shift in the production possibility frontier may be due to",
            "hasAnswered": false,
            "selectedAnswer": "0",
            "correctAnswer": false,
            "containsImage": false,
            "imageURL": "null",
            "containsPassage": false,
            "passage": "null",
            "answers": [
                {
                    "answer": "use of inferior inputs",
                    "correct": false,
                    "selected": false
                },
                {
                    "answer": "improvement in production techniques and practices    ",
                    "correct": true,
                    "selected": false
                },
                {
                    "answer": "changes in the product mix ",
                    "correct": false,
                    "selected": false
                },
                {
                    "answer": "changes in consumer taste",
                    "correct": false,
                    "selected": false
                }
             ]
        },
        {
            "question": "Direct payment incurred for producing a commodity is called",
            "hasAnswered": false,
            "selectedAnswer": "0",
            "correctAnswer": false,
            "containsImage": false,
            "imageURL": "null",
            "containsPassage": false,
            "passage": "null",
            "answers": [ 
                {
                    "answer": " implicit cost",
                    "correct": false,
                    "selected": false
                },
                {
                    "answer": " real cost",
                    "correct": false,
                    "selected": false
                },
                {
                    "answer": " due cost",
                    "correct": false,
                    "selected": false
                },
                {
                    "answer": " explicit cost",
                    "correct": true,
                    "selected": false
                }
            ]
        },
        {
            "question": "Diseconomies of scale can be caused by the following EXCEPT    ",
            "hasAnswered": false,
            "selectedAnswer": "0",
            "correctAnswer": false,
            "containsImage": false,
            "imageURL": "null",
            "containsPassage": false,
            "passage": "null",
            "answers": [ 
                {
                    "answer": " managerial inefficiency",
                    "correct": false,
                    "selected": false
                },
                {
                    "answer": "large market",
                    "correct": true,
                    "selected": false
                },
                {
                    "answer": " inefficient business environment",
                    "correct": false,
                    "selected": false
                },
                {
                    "answer": " technology",
                    "correct": false,
                    "selected": false
                }
            ]
        },
        {
            "question": "Diseconomies of scale operates when",
            "hasAnswered": false,
            "selectedAnswer": "0",
            "correctAnswer": false,
            "containsImage": false,
            "imageURL": "null",
            "containsPassage": false,
            "passage": "null",
            "answers": [ 
                {
                    "answer": "doubling inputs brings about more than proportionate increase in output",
                    "correct": false,
                    "selected": false,
                    "undefined": "  "
                },
                {
                    "answer": " doubling input brings about less than proportionate increase in output",
                    "correct": true,
                    "selected": false
                },
                {
                    "answer": " decrease in profit",
                    "correct": false,
                    "selected": false
                },
                {
                    "answer": " increase in revenue",
                    "correct": false,
                    "selected": false
                }
            ]
        },
        {
            "question": "Economic efficiency means",
            "hasAnswered": false,
            "selectedAnswer": "0",
            "correctAnswer": false,
            "containsImage": false,
            "imageURL": "null",
            "containsPassage": false,
            "passage": "null",
            "answers": [ 
                {
                    "answer": "obtaining maximum output from available resources",
                    "correct": false,
                    "selected": false
                },
                {
                    "answer": " carrying out production without any waste",
                    "correct": false,
                    "selected": false
                },
                {
                    "answer": "producing the maximum output from available resources at the lowest possible cost",
                    "correct": true,
                    "selected": false
                },
                {
                    "answer": " efficient utilisation of the nation’s resources",
                    "correct": false,
                    "selected": false
                }
            ]
        },
        {
            "question": "External economies are",
            "hasAnswered": false,
            "selectedAnswer": "0",
            "correctAnswer": false,
            "containsImage": false,
            "imageURL": "null",
            "containsPassage": false,
            "passage": "null",
            "answers": [ 
                {
                    "answer": "the advantages accruing to firm as a result of its expansion",
                    "correct": false,
                    "selected": false
                },
                {
                    "answer": " the advantages accruing to one firm as a result of the existence of other firms in the same locality",
                    "correct": true,
                    "selected": false
                },
                {
                    "answer": " economies reaped only by firms that are externally focused",
                    "correct": false,
                    "selected": false
                },
                {
                    "answer": " bound to increase the cost of production",
                    "correct": false,
                    "selected": false
                }
            ]
        },
        {
            "question": "If a firm doubles its output and its costs increase by 60%, the firm is experiencing   ",
            "hasAnswered": false,
            "selectedAnswer": "0",
            "correctAnswer": false,
            "containsImage": false,
            "imageURL": "null",
            "containsPassage": false,
            "passage": "null",
            "answers": [
                {
                    "answer": "increasing costs",
                    "correct": false,
                    "selected": false
                },
                {
                    "answer": "economies of scale",
                    "correct": true,
                    "selected": false
                },
                {
                    "answer": "decreasing costs",
                    "correct": false,
                    "selected": false
                },
                {
                    "answer": " none of the above",
                    "correct": false,
                    "selected": false
                }
             ]
        },
        {
            "question": "In economics, production is complete when   ",
            "hasAnswered": false,
            "selectedAnswer": "0",
            "correctAnswer": false,
            "containsImage": false,
            "imageURL": "null",
            "containsPassage": false,
            "passage": "null",
            "answers": [
                {
                    "answer": " Goods are produced in the factories",
                    "correct": false,
                    "selected": false
                },
                {
                    "answer": "Goods and services are produced by the government",
                    "correct": false,
                    "selected": false
                },
                {
                    "answer": " Prices are fixed for goods and services",
                    "correct": false,
                    "selected": false
                },
                {
                    "answer": " Goods and services finally reach the consumer",
                    "correct": true,
                    "selected": false
                }
             ]
        },
        {
            "question": "In the study of economics, land, labour, capital and entrepreneur are referred to as factors of production. These factors produce commodities only if they are — ",
            "hasAnswered": false,
            "selectedAnswer": "0",
            "correctAnswer": false,
            "containsImage": false,
            "imageURL": "null",
            "containsPassage": false,
            "passage": "null",
            "answers": [
                {
                    "answer": "profitable to the production process",
                    "correct": false,
                    "selected": false
                },
                {
                    "answer": "purchased for the purpose of production",
                    "correct": false,
                    "selected": false
                },
                {
                    "answer": " combined in the production process",
                    "correct": true,
                    "selected": false
                },
                {
                    "answer": " brought into factory",
                    "correct": false,
                    "selected": false
                }
             ]
        },
        {
            "question": "Production that takes place within the production possibility curve is said to be",
            "hasAnswered": false,
            "selectedAnswer": "0",
            "correctAnswer": false,
            "containsImage": false,
            "imageURL": "null",
            "containsPassage": false,
            "passage": "null",
            "answers": [ 
                {
                    "answer": "inefficient",
                    "correct": true,
                    "selected": false
                },
                {
                    "answer": "with increased output",
                    "correct": false,
                    "selected": false
                },
                {
                    "answer": "x-efficient",
                    "correct": false,
                    "selected": false
                },
                {
                    "answer": " pareto-compliant",
                    "correct": false,
                    "selected": false
                }
            ]
        },
        {
            "question": "The act of combining factor inputs in order to obtain specific output is known as",
            "hasAnswered": false,
            "selectedAnswer": "0",
            "correctAnswer": false,
            "containsImage": false,
            "imageURL": "null",
            "containsPassage": false,
            "passage": "null",
            "answers": [
                {
                    "answer": "factor procurement",
                    "correct": false,
                    "selected": false
                },
                {
                    "answer": "investment",
                    "correct": false,
                    "selected": false
                },
                {
                    "answer": "industrialisation ",
                    "correct": false,
                    "selected": false
                },
                {
                    "answer": "production",
                    "correct": true,
                    "selected": false
                }
             ]
        },
        {
            "question": "The additional output obtained by using one more unit of a factor is called",
            "hasAnswered": false,
            "selectedAnswer": "0",
            "correctAnswer": false,
            "containsImage": false,
            "imageURL": "null",
            "containsPassage": false,
            "passage": "null",
            "answers": [ 
                {
                    "answer": "marginal income",
                    "correct": false,
                    "selected": false
                },
                {
                    "answer": "additional product",
                    "correct": false,
                    "selected": false
                },
                {
                    "answer": "average product ",
                    "correct": false,
                    "selected": false
                },
                {
                    "answer": "marginal physical product",
                    "correct": true,
                    "selected": false
                }
            ]
        },
        {
            "question": "The amount of labour a producer hires relative to other factor input depends on the",
            "hasAnswered": false,
            "selectedAnswer": "0",
            "correctAnswer": false,
            "containsImage": false,
            "imageURL": "null",
            "containsPassage": false,
            "passage": "null",
            "answers": [ 
                {
                    "answer": "price of labour or its wage",
                    "correct": false,
                    "selected": false
                },
                {
                    "answer": "price of labour, machinery and other inputs",
                    "correct": true,
                    "selected": false
                },
                {
                    "answer": " price of other inputs",
                    "correct": false,
                    "selected": false
                },
                {
                    "answer": "type of machinery",
                    "correct": false,
                    "selected": false
                }
            ]
        },
        {
            "question": "The concept of economic efficiency primarily refers to",
            "hasAnswered": false,
            "selectedAnswer": "0",
            "correctAnswer": false,
            "containsImage": false,
            "imageURL": "null",
            "containsPassage": false,
            "passage": "null",
            "answers": [
                {
                    "answer": "obtaining the maximum output from available resources at the lowest possible cost",
                    "correct": true,
                    "selected": false
                },
                {
                    "answer": " equity in the distribution of the nation’s wealth",
                    "correct": false,
                    "selected": false
                },
                {
                    "answer": " producing without waste",
                    "correct": false,
                    "selected": false
                },
                {
                    "answer": " none of the above",
                    "correct": false,
                    "selected": false
                }
             ]
        },
        {
            "question": "The law of diminishing returns often operates in the   —  ",
            "hasAnswered": false,
            "selectedAnswer": "0",
            "correctAnswer": false,
            "containsImage": false,
            "imageURL": "null",
            "containsPassage": false,
            "passage": "null",
            "answers": [ 
                {
                    "answer": "long run    ",
                    "correct": false,
                    "selected": false
                },
                {
                    "answer": "short run",
                    "correct": true,
                    "selected": false
                },
                {
                    "answer": " small scale production",
                    "correct": false,
                    "selected": false
                },
                {
                    "answer": "none of the above",
                    "correct": false,
                    "selected": false
                }
            ]
        },
        {
            "question": "The main economic objective behind the production of goods and services in an economy is to ",
            "hasAnswered": false,
            "selectedAnswer": "0",
            "correctAnswer": false,
            "containsImage": false,
            "imageURL": "null",
            "containsPassage": false,
            "passage": "null",
            "answers": [ 
                {
                    "answer": "maximise profits",
                    "correct": true,
                    "selected": false
                },
                {
                    "answer": "become self-reliant",
                    "correct": false,
                    "selected": false
                },
                {
                    "answer": "create job opportunities",
                    "correct": false,
                    "selected": false
                },
                {
                    "answer": "make people wealthy",
                    "correct": false,
                    "selected": false
                }
            ]
        },
        {
            "question": "The residual of production which accrues to the ownership of land after all other expenses have been met is called ",
            "hasAnswered": false,
            "selectedAnswer": "0",
            "correctAnswer": false,
            "containsImage": false,
            "imageURL": "null",
            "containsPassage": false,
            "passage": "null",
            "answers": [ 
                {
                    "answer": "wages",
                    "correct": false,
                    "selected": false
                },
                {
                    "answer": "rent",
                    "correct": true,
                    "selected": false
                },
                {
                    "answer": "interest",
                    "correct": false,
                    "selected": false
                },
                {
                    "answer": "discount",
                    "correct": false,
                    "selected": false
                }
            ]
        },
        {
            "question": "Average fixed cost is",
            "hasAnswered": false,
            "selectedAnswer": "0",
            "correctAnswer": false,
            "containsImage": false,
            "imageURL": "null",
            "containsPassage": false,
            "passage": "null",
            "answers": [
                {
                    "answer": "average total cost less the sum of average variable cost",
                    "correct": false,
                    "selected": false
                },
                {
                    "answer": "total fixed cost divided by the level of output",
                    "correct": true,
                    "selected": false
                },
                {
                    "answer": "total fixed cost plus marginal cost",
                    "correct": false,
                    "selected": false
                },
                {
                    "answer": "total variable cost divided by output",
                    "correct": false,
                    "selected": false
                }
             ]
        },
        {
            "question": "Average fixed cost is a rectangular hyperbola    ",
            "hasAnswered": false,
            "selectedAnswer": "0",
            "correctAnswer": false,
            "containsImage": false,
            "imageURL": "null",
            "containsPassage": false,
            "passage": "null",
            "answers": [ 
                {
                    "answer": "since unit cost increases as output increases",
                    "correct": false,
                    "selected": false
                },
                {
                    "answer": "unit cost decreases as output increases",
                    "correct": true,
                    "selected": false
                },
                {
                    "answer": " unit cost remains the same as output increases",
                    "correct": false,
                    "selected": false
                },
                {
                    "answer": " none of the above",
                    "correct": false,
                    "selected": false
                }
            ]
        },
        {
            "question": "Long run cost is U-shaped because of the operation of",
            "hasAnswered": false,
            "selectedAnswer": "0",
            "correctAnswer": false,
            "containsImage": false,
            "imageURL": "null",
            "containsPassage": false,
            "passage": "null",
            "answers": [ 
                {
                    "answer": "economies of scale on the left hand side and diseconomies of scale on the right hand side ",
                    "correct": true,
                    "selected": false
                },
                {
                    "answer": "diseconomies of scale on the left and right hand sides",
                    "correct": false,
                    "selected": false
                },
                {
                    "answer": "constant return to scale",
                    "correct": false,
                    "selected": false
                },
                {
                    "answer": "diseconomies of scale of the left hand side and economies of scale of the right hand side",
                    "correct": false,
                    "selected": false
                }
            ]
        },
        {
            "question": "Marginal cost is the cost",
            "hasAnswered": false,
            "selectedAnswer": "0",
            "correctAnswer": false,
            "containsImage": false,
            "imageURL": "null",
            "containsPassage": false,
            "passage": "null",
            "answers": [ 
                {
                    "answer": "the lowest cost of producing goods",
                    "correct": false,
                    "selected": false
                },
                {
                    "answer": "the cost of production of the most efficient firm in an industry",
                    "correct": false,
                    "selected": false
                },
                {
                    "answer": "the cost of production of the last unit of goods produced by a firm",
                    "correct": true,
                    "selected": false
                },
                {
                    "answer": "the cost of production at which minimum profit is obtained by the firm",
                    "correct": false,
                    "selected": false
                }
            ]
        },
        {
            "question": "Which of the following is NOT part of the fixed cost of a firm",
            "hasAnswered": false,
            "selectedAnswer": "0",
            "correctAnswer": false,
            "containsImage": false,
            "imageURL": "null",
            "containsPassage": false,
            "passage": "null",
            "answers": [ 
                {
                    "answer": "interest on loans",
                    "correct": false,
                    "selected": false
                },
                {
                    "answer": "depreciation reserves",
                    "correct": false,
                    "selected": false
                },
                {
                    "answer": "management expenditure",
                    "correct": false,
                    "selected": false
                },
                {
                    "answer": "wages",
                    "correct": true,
                    "selected": false
                }
            ]
        },
        {
            "question": "Which of the following is used to describe a payment representing a surplus in excess   of transfer earnings? ",
            "hasAnswered": false,
            "selectedAnswer": "0",
            "correctAnswer": false,
            "containsImage": false,
            "imageURL": "null",
            "containsPassage": false,
            "passage": "null",
            "answers": [ 
                {
                    "answer": "interest rates",
                    "correct": false,
                    "selected": false
                },
                {
                    "answer": "economic rent ",
                    "correct": true,
                    "selected": false
                },
                {
                    "answer": "indirect costs",
                    "correct": false,
                    "selected": false
                },
                {
                    "answer": "wages",
                    "correct": false,
                    "selected": false
                }
            ]
        },
        {
            "question": "A perfectly competitive firm produces the most profitable output where its",
            "hasAnswered": false,
            "selectedAnswer": "0",
            "correctAnswer": false,
            "containsImage": false,
            "imageURL": "null",
            "containsPassage": false,
            "passage": "null",
            "answers": [ 
                {
                    "answer": "marginal revenue equals average cost",
                    "correct": false,
                    "selected": false
                },
                {
                    "answer": "price equals marginal cost",
                    "correct": false,
                    "selected": false
                },
                {
                    "answer": "marginal cost equals marginal revenue",
                    "correct": true,
                    "selected": false
                },
                {
                    "answer": "average revenue equals average cost",
                    "correct": false,
                    "selected": false
                }
            ]
        },
        {
            "question": "Advertising is the main technique used for effecting in a monopolistic competition",
            "hasAnswered": false,
            "selectedAnswer": "0",
            "correctAnswer": false,
            "containsImage": false,
            "imageURL": "null",
            "containsPassage": false,
            "passage": "null",
            "answers": [ 
                {
                    "answer": "product differentiation",
                    "correct": true,
                    "selected": false
                },
                {
                    "answer": "price",
                    "correct": false,
                    "selected": false
                },
                {
                    "answer": "profit",
                    "correct": false,
                    "selected": false
                },
                {
                    "answer": "supply",
                    "correct": false,
                    "selected": false
                }
            ]
        },
        {
            "question": "Output of a monopolist is usually determined at a point where",
            "hasAnswered": false,
            "selectedAnswer": "0",
            "correctAnswer": false,
            "containsImage": false,
            "imageURL": "null",
            "containsPassage": false,
            "passage": "null",
            "answers": [
                {
                    "answer": "P=MC",
                    "correct": false,
                    "selected": false
                },
                {
                    "answer": "MR=MC",
                    "correct": true,
                    "selected": false
                },
                {
                    "answer": "marginal cost is rising ",
                    "correct": false,
                    "selected": false
                },
                {
                    "answer": "marginal revenue is rising",
                    "correct": false,
                    "selected": false
                }
             ]
        },
        {
            "question": "Product homogeneity is one of the characteristics of    ",
            "hasAnswered": false,
            "selectedAnswer": "0",
            "correctAnswer": false,
            "containsImage": false,
            "imageURL": "null",
            "containsPassage": false,
            "passage": "null",
            "answers": [ 
                {
                    "answer": "perfect competition",
                    "correct": true,
                    "selected": false
                },
                {
                    "answer": "monopoly",
                    "correct": false,
                    "selected": false
                },
                {
                    "answer": "oligopoly",
                    "correct": false,
                    "selected": false
                },
                {
                    "answer": "competition",
                    "correct": false,
                    "selected": false
                }
            ]
        },
        {
            "question": "Which of the following is compatible with a firm in a purely competitive market?   ",
            "hasAnswered": false,
            "selectedAnswer": "0",
            "correctAnswer": false,
            "containsImage": false,
            "imageURL": "null",
            "containsPassage": false,
            "passage": "null",
            "answers": [
                {
                    "answer": "demand is inelastic",
                    "correct": false,
                    "selected": false
                },
                {
                    "answer": "demand is infinitely elastic",
                    "correct": true,
                    "selected": false
                },
                {
                    "answer": "price is greater than marginal cost",
                    "correct": false,
                    "selected": false
                },
                {
                    "answer": "price is less than marginal cost",
                    "correct": false,
                    "selected": false
                }
             ]
        },
        {
            "question": ".…………….is the term that describes the cost of one product in terms of forgoneproduction/acquisition of others.",
            "hasAnswered": false,
            "selectedAnswer": "0",
            "correctAnswer": false,
            "containsImage": false,
            "imageURL": "null",
            "containsPassage": false,
            "passage": "null",
            "answers": [ 
                {
                    "answer": " Marginal cost",
                    "correct": false,
                    "selected": false
                },
                {
                    "answer": "Production/acquisition cost",
                    "correct": false,
                    "selected": false
                },
                {
                    "answer": "Opportunity cost",
                    "correct": true,
                    "selected": false
                },
                {
                    "answer": "Implicit cost",
                    "correct": false,
                    "selected": false
                }
            ]
        },
        {
            "question": "An activity does not have a cost when    ",
            "hasAnswered": false,
            "selectedAnswer": "0",
            "correctAnswer": false,
            "containsImage": false,
            "imageURL": "null",
            "containsPassage": false,
            "passage": "null",
            "answers": [ {
                "answer": "the activity does not require the giving up of any other activity or thing",
                "correct": true,
                "selected": false
            },
            {
                "answer": "the government pays for it ",
                "correct": false,
                "selected": false
            },
            {
                "answer": "it is carried out by a non- governmental organisation",
                "correct": false,
                "selected": false
            },
            {
                "answer": " it is easy to undertake.",
                "correct": false,
                "selected": false
            }
        ]
        },
        {
            "question": "Choices arise on account of ........  ",
            "hasAnswered": false,
            "selectedAnswer": "0",
            "correctAnswer": false,
            "containsImage": false,
            "imageURL": "null",
            "containsPassage": false,
            "passage": "null",
            "answers": [ 
                {
                    "answer": "numerous wants  ",
                    "correct": false,
                    "selected": false
                },
                {
                    "answer": "enough money to undertake effective demand",
                    "correct": false,
                    "selected": false
                },
                {
                    "answer": "scale of preference",
                    "correct": false,
                    "selected": false
                },
                {
                    "answer": "human wants being numerous but the time, money and influence to satisfy them are limited",
                    "correct": true,
                    "selected": false
                },
                {
                    "answer": "needs",
                    "correct": false,
                    "selected": false
                }
            ]
        },
        {
            "question": "Economics is best defined as",
            "hasAnswered": false,
            "selectedAnswer": "0",
            "correctAnswer": false,
            "containsImage": false,
            "imageURL": "null",
            "containsPassage": false,
            "passage": "null",
            "answers": [ 
                {
                    "answer": "the study of allocation of resources to satisfy human wants",
                    "correct": false,
                    "selected": false
                },
                {
                    "answer": "study of how nations grow and improve their welfare",
                    "correct": false,
                    "selected": false
                },
                {
                    "answer": "the study of how to allocate scarce resources to satisfy human wants",
                    "correct": true,
                    "selected": false
                },
                {
                    "answer": "all of the above.",
                    "correct": false,
                    "selected": false
                }
            ]
        },
        {
            "question": "Economics may be described as    ",
            "hasAnswered": false,
            "selectedAnswer": "0",
            "correctAnswer": false,
            "containsImage": false,
            "imageURL": "null",
            "containsPassage": false,
            "passage": "null",
            "answers": [ 
                {
                    "answer": "the study of demand and supply of things in our environment",
                    "correct": false,
                    "selected": false
                },
                {
                    "answer": "the study of production and distribution",
                    "correct": true,
                    "selected": false
                },
                {
                    "answer": " the study of the employment of labour, capital, land and capital",
                    "correct": false,
                    "selected": false
                },
                {
                    "answer": " the study of money and banking.",
                    "correct": false,
                    "selected": false
                }
            ]
        },
        {
            "question": "From an economics point of view, an activity does not have cost when",
            "hasAnswered": false,
            "selectedAnswer": "0",
            "correctAnswer": false,
            "containsImage": false,
            "imageURL": "null",
            "containsPassage": false,
            "passage": "null",
            "answers": [ 
                {
                    "answer": "someone else pays for it",
                    "correct": false,
                    "selected": false
                },
                {
                    "answer": "the choice involves given up nothing",
                    "correct": true,
                    "selected": false
                },
                {
                    "answer": "government pays for it",
                    "correct": false,
                    "selected": false
                },
                {
                    "answer": "it is paid for from gift",
                    "correct": false,
                    "selected": false
                }
            ]
        },
        {
            "question": "Opportunity cost is a term which describes    ",
            "hasAnswered": false,
            "selectedAnswer": "0",
            "correctAnswer": false,
            "containsImage": false,
            "imageURL": "null",
            "containsPassage": false,
            "passage": "null",
            "answers": [ 
                {
                    "answer": "a study of the ways man devices to satisfy his unlimited wants from limited resources   ",
                    "correct": false,
                    "selected": false
                },
                {
                    "answer": "cost of one product in terms of forgone production of others    ",
                    "correct": true,
                    "selected": false
                },
                {
                    "answer": "the mandatory equivalent of the utility of a commodity",
                    "correct": false,
                    "selected": false
                },
                {
                    "answer": "cost related to an optimum level of production",
                    "correct": false,
                    "selected": false
                }
            ]
        },
        {
            "question": "Scarcity in economics means",
            "hasAnswered": false,
            "selectedAnswer": "0",
            "correctAnswer": false,
            "containsImage": false,
            "imageURL": "null",
            "containsPassage": false,
            "passage": "null",
            "answers": [ 
                {
                    "answer": "a period of scarce things    ",
                    "correct": false,
                    "selected": false
                },
                {
                    "answer": "when things are costly to acquire",
                    "correct": false,
                    "selected": false
                },
                {
                    "answer": "monopolisation of available resources by a few",
                    "correct": false,
                    "selected": false
                },
                {
                    "answer": "none of the above.",
                    "correct": true,
                    "selected": false
                }
            ]
        },
        {
            "question": "Which of these is the real cost of satisfying any want in the sense of the alternative that has to be forgone ",
            "hasAnswered": false,
            "selectedAnswer": "0",
            "correctAnswer": false,
            "containsImage": false,
            "imageURL": "null",
            "containsPassage": false,
            "passage": "null",
            "answers": [ 
                {
                    "answer": "variable cost",
                    "correct": false,
                    "selected": false
                },
                {
                    "answer": "opportunity cost",
                    "correct": true,
                    "selected": false
                },
                {
                    "answer": "total cost",
                    "correct": false,
                    "selected": false
                },
                {
                    "answer": " prime cost",
                    "correct": false,
                    "selected": false
                }
            ]
        },
        {
            "question": "Economic analyses and conclusions can be divided into",
            "hasAnswered": false,
            "selectedAnswer": "0",
            "correctAnswer": false,
            "containsImage": false,
            "imageURL": "null",
            "containsPassage": false,
            "passage": "null",
            "answers": [ 
                {
                    "answer": "consumption and production",
                    "correct": false,
                    "selected": false
                },
                {
                    "answer": "positive and normative",
                    "correct": true,
                    "selected": false
                },
                {
                    "answer": "microeconomics and macroeconomics",
                    "correct": false,
                    "selected": false
                },
                {
                    "answer": "none of the above",
                    "correct": false,
                    "selected": false
                }
            ]
        },
        {
            "question": "Which of the following is NOT a measure of central tendency?  ",
            "hasAnswered": false,
            "selectedAnswer": "0",
            "correctAnswer": false,
            "containsImage": false,
            "imageURL": "null",
            "containsPassage": false,
            "passage": "null",
            "answers": [ 
                {
                    "answer": "mean  ",
                    "correct": false,
                    "selected": false
                },
                {
                    "answer": "median",
                    "correct": false,
                    "selected": false
                },
                {
                    "answer": "Mode",
                    "correct": false,
                    "selected": false
                },
                {
                    "answer": "standard deviation",
                    "correct": true,
                    "selected": false
                }
            ]
        },
        {
            "question": "Which of the following is NOT a measure of dispersion    ",
            "hasAnswered": false,
            "selectedAnswer": "0",
            "correctAnswer": false,
            "containsImage": false,
            "imageURL": "null",
            "containsPassage": false,
            "passage": "null",
            "answers": [  {
                "answer": "standard deviation",
                "correct": false,
                "selected": false
            },
            {
                "answer": "mean deviation",
                "correct": false,
                "selected": false
            },
            {
                "answer": "variance",
                "correct": false,
                "selected": false
            },
            {
                "answer": " mean",
                "correct": true,
                "selected": false
            }
        ]
        },
        {
            "question": "A normal good with close substitutes is likely to have its price elasticity of demand",
            "hasAnswered": false,
            "selectedAnswer": "0",
            "correctAnswer": false,
            "containsImage": false,
            "imageURL": "null",
            "containsPassage": false,
            "passage": "null",
            "answers": [ 
                {
                    "answer": " between zero and one",
                    "correct": false,
                    "selected": false
                },
                {
                    "answer": " equal to unity",
                    "correct": false,
                    "selected": false
                },
                {
                    "answer": "greater than unity",
                    "correct": true,
                    "selected": false
                },
                {
                    "answer": "none of the above",
                    "correct": false,
                    "selected": false
                }
            ]
        },
        {
            "question": "Demand for a factor of production is",
            "hasAnswered": false,
            "selectedAnswer": "0",
            "correctAnswer": false,
            "containsImage": false,
            "imageURL": "null",
            "containsPassage": false,
            "passage": "null",
            "answers": [ 
                {
                    "answer": "A composite demand  ",
                    "correct": false,
                    "selected": false
                },
                {
                    "answer": "a derived demand",
                    "correct": true,
                    "selected": false
                },
                {
                    "answer": "an elasticity of demand",
                    "correct": false,
                    "selected": false
                },
                {
                    "answer": "cross elasticity of demand",
                    "correct": false,
                    "selected": false
                }
            ]
        },
        {
            "question": "Given Demand function: Qd = 5P + 10; Supply function: Qs = 7P – 5. If the price is at N5, the excess demand is ",
            "hasAnswered": false,
            "selectedAnswer": "0",
            "correctAnswer": false,
            "containsImage": false,
            "imageURL": "null",
            "containsPassage": false,
            "passage": "null",
            "answers": [ 
                {
                    "answer": "35",
                    "correct": false,
                    "selected": false
                },
                {
                    "answer": "30",
                    "correct": false,
                    "selected": false
                },
                {
                    "answer": "5",
                    "correct": true,
                    "selected": false
                },
                {
                    "answer": "65",
                    "correct": false,
                    "selected": false
                }
            ]
        },
        {
            "question": "If an increase in the price of a commodity leads to an increase in total revenue, then it follows that the demand for the commodity is  ",
            "hasAnswered": false,
            "selectedAnswer": "0",
            "correctAnswer": false,
            "containsImage": false,
            "imageURL": "null",
            "containsPassage": false,
            "passage": "null",
            "answers": [ 
                {
                    "answer": "elastic",
                    "correct": false,
                    "selected": false
                },
                {
                    "answer": "inelastic  ",
                    "correct": true,
                    "selected": false
                },
                {
                    "answer": "abnormal",
                    "correct": false,
                    "selected": false
                },
                {
                    "answer": "unitary",
                    "correct": false,
                    "selected": false
                }
            ]
        },
        {
            "question": "If the price of a commodity rises, the quantity demanded of the commodity remains the same, then the demand for the commodity is ",
            "hasAnswered": false,
            "selectedAnswer": "0",
            "correctAnswer": false,
            "containsImage": false,
            "imageURL": "null",
            "containsPassage": false,
            "passage": "null",
            "answers": [
                {
                    "answer": "Static",
                    "correct": false,
                    "selected": false
                },
                {
                    "answer": "infinitely elastic ",
                    "correct": false,
                    "selected": false
                },
                {
                    "answer": "perfectly inelastic",
                    "correct": true,
                    "selected": false
                },
                {
                    "answer": "perfectly elastic",
                    "correct": false,
                    "selected": false
                }
             ]
        },
        {
            "question": "The impact of a change in the price of commodity A on the quantity demanded of commodity B is best explained using the concept of    ",
            "hasAnswered": false,
            "selectedAnswer": "0",
            "correctAnswer": false,
            "containsImage": false,
            "imageURL": "null",
            "containsPassage": false,
            "passage": "null",
            "answers": [ 
                {
                    "answer": "price-elasticity of demand",
                    "correct": false,
                    "selected": false
                },
                {
                    "answer": "cross-price elasticity of demand",
                    "correct": true,
                    "selected": false
                },
                {
                    "answer": " income elasticity of demand",
                    "correct": false,
                    "selected": false
                },
                {
                    "answer": " A-price elasticity of demand for B",
                    "correct": false,
                    "selected": false
                }
            ]
        },
        {
            "question": "The change that is due to a movement from one supply curve to another along the same price is called ",
            "hasAnswered": false,
            "selectedAnswer": "0",
            "correctAnswer": false,
            "containsImage": false,
            "imageURL": "null",
            "containsPassage": false,
            "passage": "null",
            "answers": [ 
                {
                    "answer": "change in supply",
                    "correct": true,
                    "selected": false
                },
                {
                    "answer": "elasticity change",
                    "correct": false,
                    "selected": false
                },
                {
                    "answer": "control price effect",
                    "correct": false,
                    "selected": false
                },
                {
                    "answer": "change in equilibrium quantity",
                    "correct": false,
                    "selected": false
                }
            ]
        },
        {
            "question": "When the supply of a commodity is fixed, its price elasticity of supply is said to be",
            "hasAnswered": false,
            "selectedAnswer": "0",
            "correctAnswer": false,
            "containsImage": false,
            "imageURL": "null",
            "containsPassage": false,
            "passage": "null",
            "answers": [ 
                {
                    "answer": "perfectly elastic   ",
                    "correct": false,
                    "selected": false
                },
                {
                    "answer": "perfectly inelastic  ",
                    "correct": true,
                    "selected": false
                },
                {
                    "answer": "elastic",
                    "correct": false,
                    "selected": false
                },
                {
                    "answer": "inelastic",
                    "correct": false,
                    "selected": false
                }
            ]
        },
        {
            "question": "A production possibility curve shows",
            "hasAnswered": false,
            "selectedAnswer": "0",
            "correctAnswer": false,
            "containsImage": false,
            "imageURL": "null",
            "containsPassage": false,
            "passage": "null",
            "answers": [ 
                {
                    "answer": " how much of resources a society uses to produce a particular commodity",
                    "correct": false,
                    "selected": false
                },
                {
                    "answer": " the rate of inflation ",
                    "correct": false,
                    "selected": false
                },
                {
                    "answer": "the various combinations of the commodities that can be produced",
                    "correct": true,
                    "selected": false
                },
                {
                    "answer": " all of the above",
                    "correct": false,
                    "selected": false
                }
            ]
        }
    ]
    
}