{
    "questions": [
        {
            "question": "Which of the following is the basic accounting equation?",
            "hasAnswered": false,
            "selectedAnswer": "0",
            "correctAnswer": false,
            "containsImage": false,
            "imageURL": "null",
            "containsPassage": false,
            "passage": "null",
            "answers": [  
                {
                    "answer": "Assets= Capital + Liabilities",
                    "correct": true,
                    "selected": false
                },
                {
                    "answer": "Capital= Assets + Liabilities",
                    "correct": false,
                    "selected": false
                },
                {
                    "answer": " Liabilities= Assets + Capital",
                    "correct": false,
                    "selected": false
                },
                {
                    "answer": " Assets= Liabilities – Equity",
                    "correct": false,
                    "selected": false
                }
             ]
        },
        {
            "question": "A system where a separate cash book is maintained for small payments is_________________________.",
            "hasAnswered": false,
            "selectedAnswer": "0",
            "correctAnswer": false,
            "containsImage": false,
            "imageURL": "null",
            "containsPassage": false,
            "passage": "null",
            "answers": [  
                {
                    "answer": " single entry",
                    "correct": false,
                    "selected": false
                },
                {
                    "answer": " imprest",
                    "correct": true,
                    "selected": false
                },
                {
                    "answer": " float",
                    "correct": false,
                    "selected": false
                },
                {
                    "answer": " reimbursement",
                    "correct": false,
                    "selected": false
                }
             ]
        },
        {
            "question": "An analytical cash book is used to  _________________",
            "hasAnswered": false,
            "selectedAnswer": "0",
            "correctAnswer": false,
            "containsImage": false,
            "imageURL": "null",
            "containsPassage": false,
            "passage": "null",
            "answers": [  
                {
                    "answer": " indicate sources of cash received ",
                    "correct": false,
                    "selected": false
                },
                {
                    "answer": " Categorise  petty cash payment",
                    "correct": true,
                    "selected": false
                },
                {
                    "answer": " separate cash and bank balance",
                    "correct": false,
                    "selected": false
                },
                {
                    "answer": " analyse amounts due from debtors",
                    "correct": false,
                    "selected": false
                }
             ]
        },
        {
            "question": "The sum of money given to a petty cashier out of which small payments are made is called _______________________.",
            "hasAnswered": false,
            "selectedAnswer": "0",
            "correctAnswer": false,
            "containsImage": false,
            "imageURL": "null",
            "containsPassage": false,
            "passage": "null",
            "answers": [ 
                {
                    "answer": "bonus",
                    "correct": false,
                    "selected": false
                },
                {
                    "answer": " loan",
                    "correct": false,
                    "selected": false
                },
                {
                    "answer": " advance",
                    "correct": false,
                    "selected": false
                },
                {
                    "answer": "float",
                    "correct": true,
                    "selected": false
                }
              ]
        },
        {
            "question": "A rent of 250,000 was paid by John to his landlord by cheque. The double entry in John’s books is _____________________.",
            "hasAnswered": false,
            "selectedAnswer": "0",
            "correctAnswer": false,
            "containsImage": false,
            "imageURL": "null",
            "containsPassage": false,
            "passage": "null",
            "answers": [  
                {
                    "answer": "debit Rent account, credit Bank account",
                    "correct": true,
                    "selected": false
                },
                {
                    "answer": "debit Rent account, credit John’s account",
                    "correct": false,
                    "selected": false
                },
                {
                    "answer": "debit Bank account, credit Rent account",
                    "correct": false,
                    "selected": false
                },
                {
                    "answer": "debit John’s account, credit Rent account",
                    "correct": false,
                    "selected": false
                }
             ]
        },
        {
            "question": "Items in the bank statement of a business but not in the cash book before preparation of bank reconciliation statement do not include? ",
            "hasAnswered": false,
            "selectedAnswer": "0",
            "correctAnswer": false,
            "containsImage": false,
            "imageURL": "null",
            "containsPassage": false,
            "passage": "null",
            "answers": [  
                {
                    "answer": " Bank charges",
                    "correct": false,
                    "selected": false
                },
                {
                    "answer": " Standing order",
                    "correct": false,
                    "selected": false
                },
                {
                    "answer": " Presented cheque",
                    "correct": true,
                    "selected": false
                },
                {
                    "answer": " interest on overdraft",
                    "correct": false,
                    "selected": false
                }
             ]
        },
        {
            "question": "The correct sequence in data processing is _____________.",
            "hasAnswered": false,
            "selectedAnswer": "0",
            "correctAnswer": false,
            "containsImage": false,
            "imageURL": "null",
            "containsPassage": false,
            "passage": "null",
            "answers": [ 
                {
                    "answer": " input →process→ output ",
                    "correct": true,
                    "selected": false
                },
                {
                    "answer": " input→ output →process",
                    "correct": false,
                    "selected": false
                },
                {
                    "answer": " process→ input→ output",
                    "correct": false,
                    "selected": false
                },
                {
                    "answer": " process→ output→ input",
                    "correct": false,
                    "selected": false
                }
              ]
        },
        {
            "question": "When a sum of money appears on the credit side of the cash book, but not on the debit side of the bank statement, the sum is regarded as ",
            "hasAnswered": false,
            "selectedAnswer": "0",
            "correctAnswer": false,
            "containsImage": false,
            "imageURL": "null",
            "containsPassage": false,
            "passage": "null",
            "answers": [  
                {
                    "answer": " uncredited cheques",
                    "correct": false,
                    "selected": false
                },
                {
                    "answer": "dishonoured cheques",
                    "correct": false,
                    "selected": false
                },
                {
                    "answer": "direct remitance to the bank.",
                    "correct": false,
                    "selected": false
                },
                {
                    "answer": " unpresented cheques.",
                    "correct": true,
                    "selected": false
                }
             ]
        },
        {
            "question": "Which of the following is not a data processing method? ",
            "hasAnswered": false,
            "selectedAnswer": "0",
            "correctAnswer": false,
            "containsImage": false,
            "imageURL": "null",
            "containsPassage": false,
            "passage": "null",
            "answers": [ 
                {
                    "answer": "Manual  ",
                    "correct": false,
                    "selected": false
                },
                {
                    "answer": " Mechanical ",
                    "correct": false,
                    "selected": false
                },
                {
                    "answer": " Electronic",
                    "correct": false,
                    "selected": false
                },
                {
                    "answer": " Formatting",
                    "correct": true,
                    "selected": false
                }
              ]
        },
        {
            "question": "Fatima withdraws goods from the business for personal use.  The accounting treatment is to debit ____________",
            "hasAnswered": false,
            "selectedAnswer": "0",
            "correctAnswer": false,
            "containsImage": false,
            "imageURL": "null",
            "containsPassage": false,
            "passage": "null",
            "answers": [ 
                {
                    "answer": "stock account and credit profit and loss account",
                    "correct": false,
                    "selected": false
                },
                {
                    "answer": " drawings account and credit stock account",
                    "correct": true,
                    "selected": false
                },
                {
                    "answer": " Profit and loss account and credit drawings account",
                    "correct": false,
                    "selected": false
                },
                {
                    "answer": " Stock account and credit drawings account",
                    "correct": false,
                    "selected": false
                }
              ]
        },
        {
            "question": "Given N - Net Profit 25,000, Cost of sales 25,000, Sales 85,000, Determine the total expenses",
            "hasAnswered": false,
            "selectedAnswer": "0",
            "correctAnswer": false,
            "containsImage": false,
            "imageURL": "null",
            "containsPassage": false,
            "passage": "null",
            "answers": [ 
                {
                    "answer": " N45,000",
                    "correct": false,
                    "selected": false
                },
                {
                    "answer": "N35,000",
                    "correct": true,
                    "selected": false
                },
                {
                    "answer": " N25,000",
                    "correct": false,
                    "selected": false
                },
                {
                    "answer": " N15,000",
                    "correct": false,
                    "selected": false
                }
              ]
        },
        {
            "question": "The objective of a trading account is to establish the   _______________",
            "hasAnswered": false,
            "selectedAnswer": "0",
            "correctAnswer": false,
            "containsImage": false,
            "imageURL": "null",
            "containsPassage": false,
            "passage": "null",
            "answers": [  
                {
                    "answer": "cost of goods sold  ",
                    "correct": false,
                    "selected": false
                },
                {
                    "answer": "gross profit ",
                    "correct": true,
                    "selected": false
                },
                {
                    "answer": "manufacturing profit",
                    "correct": false,
                    "selected": false
                },
                {
                    "answer": " net profit",
                    "correct": false,
                    "selected": false
                }
             ]
        },
        {
            "question": "The process of allocating the cost of an intangible asset over its useful life is known as _________________",
            "hasAnswered": false,
            "selectedAnswer": "0",
            "correctAnswer": false,
            "containsImage": false,
            "imageURL": "null",
            "containsPassage": false,
            "passage": "null",
            "answers": [  
                {
                    "answer": "depreciation",
                    "correct": false,
                    "selected": false
                },
                {
                    "answer": " extraction",
                    "correct": false,
                    "selected": false
                },
                {
                    "answer": " depletion",
                    "correct": false,
                    "selected": false
                },
                {
                    "answer": " amortization.",
                    "correct": true,
                    "selected": false
                }
             ]
        },
        {
            "question": "The profit of a sole trader increases his ______________.",
            "hasAnswered": false,
            "selectedAnswer": "0",
            "correctAnswer": false,
            "containsImage": false,
            "imageURL": "null",
            "containsPassage": false,
            "passage": "null",
            "answers": [  
                {
                    "answer": " stock  ",
                    "correct": false,
                    "selected": false
                },
                {
                    "answer": " asset  ",
                    "correct": false,
                    "selected": false
                },
                {
                    "answer": " liability ",
                    "correct": false,
                    "selected": false
                },
                {
                    "answer": "capital",
                    "correct": true,
                    "selected": false
                }
             ]
        },
        {
            "question": "The recording of wages due but not yet paid is an example of, an adjustment for",
            "hasAnswered": false,
            "selectedAnswer": "0",
            "correctAnswer": false,
            "containsImage": false,
            "imageURL": "null",
            "containsPassage": false,
            "passage": "null",
            "answers": [  
                {
                    "answer": "apportionment of revenue between two periods",
                    "correct": false,
                    "selected": false
                },
                {
                    "answer": "recognizing accrued expenses ",
                    "correct": true,
                    "selected": false
                },
                {
                    "answer": "recognizing unaccounted revenue",
                    "correct": false,
                    "selected": false
                },
                {
                    "answer": "recognizing prepaid expenses",
                    "correct": false,
                    "selected": false
                }
             ]
        },
        {
            "question": "The trial balance showed wages, N2,500 and a note stated that N500 wages were due but unpaid. When preparing final accounts and balance sheet, it is required to debit profit and loss account with ",
            "hasAnswered": false,
            "selectedAnswer": "0",
            "correctAnswer": false,
            "containsImage": false,
            "imageURL": "null",
            "containsPassage": false,
            "passage": "null",
            "answers": [  
                {
                    "answer": "N3,000 and show wages accrued N500 in the balance sheet",
                    "correct": true,
                    "selected": false
                },
                {
                    "answer": " N2,000 and show ages accrued N500 in the balanced sheet.",
                    "correct": false,
                    "selected": false
                },
                {
                    "answer": " N3,000 and show wages prepaid N500 in the balance sheet.",
                    "correct": false,
                    "selected": false
                },
                {
                    "answer": " N2,000 and show wages paid in advance N500 in the balance sheet",
                    "correct": false,
                    "selected": false
                }
             ]
        },
        {
            "question": "Which of the following is the effect of an increase in the provision for discount allowed?",
            "hasAnswered": false,
            "selectedAnswer": "0",
            "correctAnswer": false,
            "containsImage": false,
            "imageURL": "null",
            "containsPassage": false,
            "passage": "null",
            "answers": [  
                {
                    "answer": "Increase in net profit",
                    "correct": false,
                    "selected": false
                },
                {
                    "answer": " Decrease in gross profit",
                    "correct": false,
                    "selected": false
                },
                {
                    "answer": " Decrease in net profit",
                    "correct": true,
                    "selected": false
                },
                {
                    "answer": " Increase in gross profit",
                    "correct": false,
                    "selected": false
                }
             ]
        },
        {
            "question": "Why are adjustments in the profit loss account necessary? ",
            "hasAnswered": false,
            "selectedAnswer": "0",
            "correctAnswer": false,
            "containsImage": false,
            "imageURL": "null",
            "containsPassage": false,
            "passage": "null",
            "answers": [ 
                {
                    "answer": " To cover some expenses of the following year.",
                    "correct": false,
                    "selected": false
                },
                {
                    "answer": " To ascertain the actual expenses during the year.",
                    "correct": true,
                    "selected": false
                },
                {
                    "answer": " To show the provisions made during the year.",
                    "correct": false,
                    "selected": false
                },
                {
                    "answer": " To show the total expenses paid and income received during the year.",
                    "correct": false,
                    "selected": false
                }
              ]
        },
        {
            "question": "A seller of vegetables and fruits should be encouraged to value his stock at the end of a period using the ",
            "hasAnswered": false,
            "selectedAnswer": "0",
            "correctAnswer": false,
            "containsImage": false,
            "imageURL": "null",
            "containsPassage": false,
            "passage": "null",
            "answers": [   
                {
                    "answer": "weighted average method",
                    "correct": false,
                    "selected": false
                },
                {
                    "answer": "simple average method",
                    "correct": false,
                    "selected": false
                },
                {
                    "answer": "FIFO method",
                    "correct": true,
                    "selected": false
                },
                {
                    "answer": "LIFO method",
                    "correct": false,
                    "selected": false
                }
            ]
        },
        {
            "question": "Stock valuation is useful because it informs the sales department on the    ",
            "hasAnswered": false,
            "selectedAnswer": "0",
            "correctAnswer": false,
            "containsImage": false,
            "imageURL": "null",
            "containsPassage": false,
            "passage": "null",
            "answers": [  
                {
                    "answer": " prices of the competing goods  ",
                    "correct": false,
                    "selected": false
                },
                {
                    "answer": "prices that will affect profitability  ",
                    "correct": true,
                    "selected": false
                },
                {
                    "answer": " number of goods to produce",
                    "correct": false,
                    "selected": false
                },
                {
                    "answer": "number of goods to sell",
                    "correct": false,
                    "selected": false
                }
             ]
        },
        {
            "question": "Which of the following stock valuation methods is suitable under inflationary conditions?",
            "hasAnswered": false,
            "selectedAnswer": "0",
            "correctAnswer": false,
            "containsImage": false,
            "imageURL": "null",
            "containsPassage": false,
            "passage": "null",
            "answers": [ 
                {
                    "answer": "FIFO",
                    "correct": true,
                    "selected": false
                },
                {
                    "answer": " LIFO",
                    "correct": false,
                    "selected": false
                },
                {
                    "answer": " Simple average",
                    "correct": false,
                    "selected": false
                },
                {
                    "answer": " Weighted average.",
                    "correct": false,
                    "selected": false
                }
              ]
        },
        {
            "question": "In the absence of a sales day book or sales account, credit sales can be computed from ",
            "hasAnswered": false,
            "selectedAnswer": "0",
            "correctAnswer": false,
            "containsImage": false,
            "imageURL": "null",
            "containsPassage": false,
            "passage": "null",
            "answers": [ 
                {
                    "answer": "creditor control account",
                    "correct": false,
                    "selected": false
                },
                {
                    "answer": " debtors' control account",
                    "correct": true,
                    "selected": false
                },
                {
                    "answer": "opening figures of the balance sheet",
                    "correct": false,
                    "selected": false
                },
                {
                    "answer": "closing figures of the balance sheet",
                    "correct": false,
                    "selected": false
                }
              ]
        },
        {
            "question": "Sales ledger control account contains the total amount in respect of",
            "hasAnswered": false,
            "selectedAnswer": "0",
            "correctAnswer": false,
            "containsImage": false,
            "imageURL": "null",
            "containsPassage": false,
            "passage": "null",
            "answers": [  
                {
                    "answer": " Creditors ",
                    "correct": false,
                    "selected": false
                },
                {
                    "answer": " Debtors",
                    "correct": true,
                    "selected": false
                },
                {
                    "answer": "Investors",
                    "correct": false,
                    "selected": false
                },
                {
                    "answer": "Shareholders.",
                    "correct": false,
                    "selected": false
                }
             ]
        },
        {
            "question": "The difference in the sales ledger control account is transferred to the    ",
            "hasAnswered": false,
            "selectedAnswer": "0",
            "correctAnswer": false,
            "containsImage": false,
            "imageURL": "null",
            "containsPassage": false,
            "passage": "null",
            "answers": [
                {
                    "answer": "profit and loss account",
                    "correct": false,
                    "selected": false
                },
                {
                    "answer": " sales account",
                    "correct": true,
                    "selected": false
                },
                {
                    "answer": "balance sheet",
                    "correct": false,
                    "selected": false
                },
                {
                    "answer": "trading account",
                    "correct": false,
                    "selected": false
                }
               ]
        },
        {
            "question": "The following represents extracts from the trading account of a retail outlet for a given month:  Opening stock 2,400 Closing stock 6,400 Other expenses 2,000 Sales 11,000 Profit 900 What is the purchase figure for the month?",
            "hasAnswered": false,
            "selectedAnswer": "0",
            "correctAnswer": false,
            "containsImage": false,
            "imageURL": "null",
            "containsPassage": false,
            "passage": "null",
            "answers": [ 
                {
                    "answer": " N13,000",
                    "correct": false,
                    "selected": false
                },
                {
                    "answer": " N12, 100",
                    "correct": true,
                    "selected": false
                },
                {
                    "answer": " N12,000",
                    "correct": false,
                    "selected": false
                },
                {
                    "answer": "N11,200",
                    "correct": false,
                    "selected": false
                }
              ]
        },
        {
            "question": "A financial analyst needs accounts information to ",
            "hasAnswered": false,
            "selectedAnswer": "0",
            "correctAnswer": false,
            "containsImage": false,
            "imageURL": "null",
            "containsPassage": false,
            "passage": "null",
            "answers": [  
                {
                    "answer": " maintain the production section of the business",
                    "correct": false,
                    "selected": false
                },
                {
                    "answer": " know why transactions cause increases and decreases in asset",
                    "correct": false,
                    "selected": false
                },
                {
                    "answer": " advice on how to manage the business",
                    "correct": true,
                    "selected": false
                },
                {
                    "answer": "know how to record transactions in T account.",
                    "correct": false,
                    "selected": false
                }
             ]
        },
        {
            "question": "Creditors use accounting information for the purpose of ",
            "hasAnswered": false,
            "selectedAnswer": "0",
            "correctAnswer": false,
            "containsImage": false,
            "imageURL": "null",
            "containsPassage": false,
            "passage": "null",
            "answers": [ 
                {
                    "answer": " planning sales to a company  ",
                    "correct": false,
                    "selected": false
                },
                {
                    "answer": "controlling a company's affairs",
                    "correct": false,
                    "selected": false
                },
                {
                    "answer": " investing in a company",
                    "correct": false,
                    "selected": false
                },
                {
                    "answer": " assessing a company's liquidity",
                    "correct": true,
                    "selected": false
                }
              ]
        },
        {
            "question": "In preparing accounting records, the owners of a business and the business are treated as ",
            "hasAnswered": false,
            "selectedAnswer": "0",
            "correctAnswer": false,
            "containsImage": false,
            "imageURL": "null",
            "containsPassage": false,
            "passage": "null",
            "answers": [  
                {
                    "answer": "the same person",
                    "correct": false,
                    "selected": false
                },
                {
                    "answer": " having business relationship",
                    "correct": false,
                    "selected": false
                },
                {
                    "answer": "separate legal entities",
                    "correct": true,
                    "selected": false
                },
                {
                    "answer": " partners.",
                    "correct": false,
                    "selected": false
                }
             ]
        },
        {
            "question": "One of the major features of bookkeeping is that it",
            "hasAnswered": false,
            "selectedAnswer": "0",
            "correctAnswer": false,
            "containsImage": false,
            "imageURL": "null",
            "containsPassage": false,
            "passage": "null",
            "answers": [ 
                {
                    "answer": "provides permanent records for all financial transactions",
                    "correct": true,
                    "selected": false
                },
                {
                    "answer": " is futuristic in nature",
                    "correct": false,
                    "selected": false
                },
                {
                    "answer": " accepts responsibility for all wrong posting",
                    "correct": false,
                    "selected": false
                },
                {
                    "answer": " does not give room for double entry procedure",
                    "correct": false,
                    "selected": false
                }
              ]
        },
        {
            "question": "The accounting principle which states that for every debit entry, there is a corresponding credit entry is recognized as ………………………... concept. ",
            "hasAnswered": false,
            "selectedAnswer": "0",
            "correctAnswer": false,
            "containsImage": false,
            "imageURL": "null",
            "containsPassage": false,
            "passage": "null",
            "answers": [ 
                {
                    "answer": " realization",
                    "correct": false,
                    "selected": false
                },
                {
                    "answer": " entity",
                    "correct": false,
                    "selected": false
                },
                {
                    "answer": "going concern",
                    "correct": false,
                    "selected": false
                },
                {
                    "answer": "duality",
                    "correct": true,
                    "selected": false
                }
              ]
        },
        {
            "question": "The art of collecting, recording, presenting and interpreting accounting data is …………………………………….",
            "hasAnswered": false,
            "selectedAnswer": "0",
            "correctAnswer": false,
            "containsImage": false,
            "imageURL": "null",
            "containsPassage": false,
            "passage": "null",
            "answers": [  
                {
                    "answer": "Cost accounting",
                    "correct": false,
                    "selected": false
                },
                {
                    "answer": " management accounting",
                    "correct": false,
                    "selected": false
                },
                {
                    "answer": " financial accounting",
                    "correct": true,
                    "selected": false
                },
                {
                    "answer": " data processing",
                    "correct": false,
                    "selected": false
                }
             ]
        },
        {
            "question": "The assumption that a business has perpetual existence is recognized by _______________________ .",
            "hasAnswered": false,
            "selectedAnswer": "0",
            "correctAnswer": false,
            "containsImage": false,
            "imageURL": "null",
            "containsPassage": false,
            "passage": "null",
            "answers": [  
                {
                    "answer": "Entity  concept",
                    "correct": false,
                    "selected": false
                },
                {
                    "answer": " periodicity concept",
                    "correct": false,
                    "selected": false
                },
                {
                    "answer": "going concern concept",
                    "correct": true,
                    "selected": false
                },
                {
                    "answer": "realization concept",
                    "correct": false,
                    "selected": false
                }
             ]
        },
        {
            "question": "The most important reason for studying accounting is that ",
            "hasAnswered": false,
            "selectedAnswer": "0",
            "correctAnswer": false,
            "containsImage": false,
            "imageURL": "null",
            "containsPassage": false,
            "passage": "null",
            "answers": [   
                {
                    "answer": " the information provided by",
                    "correct": true,
                    "selected": false
                },
                {
                    "answer": "accounting is useful in making decisions",
                    "correct": false,
                    "selected": false
                },
                {
                    "answer": "accounting plays an important role in a society ",
                    "correct": false,
                    "selected": false
                },
                {
                    "answer": "the study of accounting leads to a challenging career",
                    "correct": false,
                    "selected": false
                }
            ]
        },
        {
            "question": "Which of the following accounting conventions suggests that accountants should use a method of valuation that understates rather than overstates results? ",
            "hasAnswered": false,
            "selectedAnswer": "0",
            "correctAnswer": false,
            "containsImage": false,
            "imageURL": "null",
            "containsPassage": false,
            "passage": "null",
            "answers": [ 
                {
                    "answer": "Conservatism",
                    "correct": true,
                    "selected": false
                },
                {
                    "answer": " Historical",
                    "correct": false,
                    "selected": false
                },
                {
                    "answer": "Monetary",
                    "correct": false,
                    "selected": false
                },
                {
                    "answer": " Cost",
                    "correct": false,
                    "selected": false
                }
              ]
        },
        {
            "question": "A Sales Day Book is used for recording _____________",
            "hasAnswered": false,
            "selectedAnswer": "0",
            "correctAnswer": false,
            "containsImage": false,
            "imageURL": "null",
            "containsPassage": false,
            "passage": "null",
            "answers": [ 
                {
                    "answer": "credit sales  ",
                    "correct": true,
                    "selected": false
                },
                {
                    "answer": "sales returns  ",
                    "correct": false,
                    "selected": false
                },
                {
                    "answer": " hire purchase",
                    "correct": false,
                    "selected": false
                },
                {
                    "answer": " cash sales",
                    "correct": false,
                    "selected": false
                }
              ]
        },
        {
            "question": "A trial balance is usually prepared by an accountant from account balances in the ledger for the purpose of",
            "hasAnswered": false,
            "selectedAnswer": "0",
            "correctAnswer": false,
            "containsImage": false,
            "imageURL": "null",
            "containsPassage": false,
            "passage": "null",
            "answers": [ 
                {
                    "answer": "classifying in the ledger.",
                    "correct": false,
                    "selected": false
                },
                {
                    "answer": "Testing arithmetical accuracies of the ledger account balance",
                    "correct": true,
                    "selected": false
                },
                {
                    "answer": " identifying the balance sheet items",
                    "correct": false,
                    "selected": false
                },
                {
                    "answer": "providing a basis for establishing the accountant's competence",
                    "correct": false,
                    "selected": false
                }
              ]
        },
        {
            "question": "Bola, UTC's regular customer, owed NI 000 on account of a radio bought. If he sent in a cheque for N500, UTC would send him a ",
            "hasAnswered": false,
            "selectedAnswer": "0",
            "correctAnswer": false,
            "containsImage": false,
            "imageURL": "null",
            "containsPassage": false,
            "passage": "null",
            "answers": [ 
                {
                    "answer": "credit note",
                    "correct": true,
                    "selected": false
                },
                {
                    "answer": "debit note",
                    "correct": false,
                    "selected": false
                },
                {
                    "answer": " journal voucher",
                    "correct": false,
                    "selected": false
                },
                {
                    "answer": " way bill.",
                    "correct": false,
                    "selected": false
                }
              ]
        },
        {
            "question": "Books of original entry are used for ",
            "hasAnswered": false,
            "selectedAnswer": "0",
            "correctAnswer": false,
            "containsImage": false,
            "imageURL": "null",
            "containsPassage": false,
            "passage": "null",
            "answers": [  
                {
                    "answer": "recording business transactions",
                    "correct": true,
                    "selected": false
                },
                {
                    "answer": "the adjustment of accounts",
                    "correct": false,
                    "selected": false
                },
                {
                    "answer": " reminding the book keeper to-post transactions in the ledger",
                    "correct": false,
                    "selected": false
                },
                {
                    "answer": "informing the bookkeeper about the state of affairs.",
                    "correct": false,
                    "selected": false
                }
             ]
        },
        {
            "question": "If salary account is debited instead of stationery account, the error committed is that of ",
            "hasAnswered": false,
            "selectedAnswer": "0",
            "correctAnswer": false,
            "containsImage": false,
            "imageURL": "null",
            "containsPassage": false,
            "passage": "null",
            "answers": [ 
                {
                    "answer": "commission",
                    "correct": true,
                    "selected": false
                },
                {
                    "answer": " omission",
                    "correct": false,
                    "selected": false
                },
                {
                    "answer": " principle",
                    "correct": false,
                    "selected": false
                },
                {
                    "answer": " compensation",
                    "correct": false,
                    "selected": false
                }
              ]
        },
        {
            "question": "Ledger account is mainly classified into  ",
            "hasAnswered": false,
            "selectedAnswer": "0",
            "correctAnswer": false,
            "containsImage": false,
            "imageURL": "null",
            "containsPassage": false,
            "passage": "null",
            "answers": [  
                {
                    "answer": " nominal, real and personal accounts   ",
                    "correct": true,
                    "selected": false
                },
                {
                    "answer": "fixed and current accounts",
                    "correct": false,
                    "selected": false
                },
                {
                    "answer": " management, financial and public sector accounting",
                    "correct": false,
                    "selected": false
                },
                {
                    "answer": " bankand cash accounts",
                    "correct": false,
                    "selected": false
                }
             ]
        },
        {
            "question": "One major advantage of a ledger is that it ",
            "hasAnswered": false,
            "selectedAnswer": "0",
            "correctAnswer": false,
            "containsImage": false,
            "imageURL": "null",
            "containsPassage": false,
            "passage": "null",
            "answers": [ 
                {
                    "answer": "is a book of original entry",
                    "correct": false,
                    "selected": false
                },
                {
                    "answer": " is only accessible to shareholders during distribution",
                    "correct": false,
                    "selected": false
                },
                {
                    "answer": "removes the need for preparing a balance sheet after each transaction",
                    "correct": false,
                    "selected": false
                },
                {
                    "answer": " can be used by any type of business",
                    "correct": true,
                    "selected": false
                }
              ]
        },
        {
            "question": "Return inwards is also known as _____________",
            "hasAnswered": false,
            "selectedAnswer": "0",
            "correctAnswer": false,
            "containsImage": false,
            "imageURL": "null",
            "containsPassage": false,
            "passage": "null",
            "answers": [ 
                {
                    "answer": "purchases returns",
                    "correct": false,
                    "selected": false
                },
                {
                    "answer": " sales returns  ",
                    "correct": true,
                    "selected": false
                },
                {
                    "answer": " goods on sale or return.",
                    "correct": false,
                    "selected": false
                },
                {
                    "answer": "goods in transit",
                    "correct": false,
                    "selected": false
                }
              ]
        },
        {
            "question": "The account which refers to the tangible assets of a company that is of permanent nature is the ____________________________.",
            "hasAnswered": false,
            "selectedAnswer": "0",
            "correctAnswer": false,
            "containsImage": false,
            "imageURL": "null",
            "containsPassage": false,
            "passage": "null",
            "answers": [  
                {
                    "answer": " personal account",
                    "correct": false,
                    "selected": false
                },
                {
                    "answer": "real account",
                    "correct": true,
                    "selected": false
                },
                {
                    "answer": "nominal account",
                    "correct": false,
                    "selected": false
                },
                {
                    "answer": " cash account",
                    "correct": false,
                    "selected": false
                }
             ]
        },
        {
            "question": "The document that is used to acknowledge the acceptance of the return of goods by the seller from the buyer is known as ",
            "hasAnswered": false,
            "selectedAnswer": "0",
            "correctAnswer": false,
            "containsImage": false,
            "imageURL": "null",
            "containsPassage": false,
            "passage": "null",
            "answers": [ 
                {
                    "answer": "credit note",
                    "correct": true,
                    "selected": false
                },
                {
                    "answer": "debit note",
                    "correct": false,
                    "selected": false
                },
                {
                    "answer": "invoice",
                    "correct": false,
                    "selected": false
                },
                {
                    "answer": "voucher.",
                    "correct": false,
                    "selected": false
                }
              ]
        },
        {
            "question": "The effect of payment of a liability is that it ",
            "hasAnswered": false,
            "selectedAnswer": "0",
            "correctAnswer": false,
            "containsImage": false,
            "imageURL": "null",
            "containsPassage": false,
            "passage": "null",
            "answers": [ 
                {
                    "answer": " increases both assets and liabilities ",
                    "correct": false,
                    "selected": false
                },
                {
                    "answer": "increases assets and decreases liabilities ",
                    "correct": false,
                    "selected": false
                },
                {
                    "answer": " decreases assets and increases liabilities ",
                    "correct": false,
                    "selected": false
                },
                {
                    "answer": "decreases both assets and liabilities",
                    "correct": true,
                    "selected": false
                }
              ]
        },
        {
            "question": "The term posting in accounting refers to ",
            "hasAnswered": false,
            "selectedAnswer": "0",
            "correctAnswer": false,
            "containsImage": false,
            "imageURL": "null",
            "containsPassage": false,
            "passage": "null",
            "answers": [ 
                {
                    "answer": " recording entries in the journal",
                    "correct": false,
                    "selected": false
                },
                {
                    "answer": "transferring the balances in the ledger to the trial balance",
                    "correct": false,
                    "selected": false
                },
                {
                    "answer": "tracing amounts from the journal to the ledger to find errors",
                    "correct": false,
                    "selected": false
                },
                {
                    "answer": " transferring entries to the ledger from the journal.",
                    "correct": true,
                    "selected": false
                }
              ]
        },
        {
            "question": "Which of the following is not a real account? ",
            "hasAnswered": false,
            "selectedAnswer": "0",
            "correctAnswer": false,
            "containsImage": false,
            "imageURL": "null",
            "containsPassage": false,
            "passage": "null",
            "answers": [  
                {
                    "answer": "Buildings account  ",
                    "correct": false,
                    "selected": false
                },
                {
                    "answer": " Motor vehicle account",
                    "correct": false,
                    "selected": false
                },
                {
                    "answer": " Patents account",
                    "correct": true,
                    "selected": false
                },
                {
                    "answer": " Furniture account",
                    "correct": false,
                    "selected": false
                }
             ]
        },
        {
            "question": "Which of the following is not a revenue account?",
            "hasAnswered": false,
            "selectedAnswer": "0",
            "correctAnswer": false,
            "containsImage": false,
            "imageURL": "null",
            "containsPassage": false,
            "passage": "null",
            "answers": [ 
                {
                    "answer": "Sales  ",
                    "correct": false,
                    "selected": false
                },
                {
                    "answer": " Purchases",
                    "correct": true,
                    "selected": false
                },
                {
                    "answer": " Discount received",
                    "correct": false,
                    "selected": false
                },
                {
                    "answer": " Interest received",
                    "correct": false,
                    "selected": false
                }
              ]
        },
        {
            "question": "Which of the following concepts is expected to hold when a proprietor makes a drawing of goods or cash from the business?",
            "hasAnswered": false,
            "selectedAnswer": "0",
            "correctAnswer": false,
            "containsImage": false,
            "imageURL": "null",
            "containsPassage": false,
            "passage": "null",
            "answers": [ 
                {
                    "answer": "Business entity",
                    "correct": true,
                    "selected": false
                },
                {
                    "answer": " Realization",
                    "correct": false,
                    "selected": false
                },
                {
                    "answer": " Going concern",
                    "correct": false,
                    "selected": false
                },
                {
                    "answer": "Dual-aspect",
                    "correct": false,
                    "selected": false
                }
              ]
        },
        {
            "question": "A payment of cash of N20 to John was entered on the receipt side of the cash book in error and credited to John's account. Which of the following journal entries can be used to correct the error? ",
            "hasAnswered": false,
            "selectedAnswer": "0",
            "correctAnswer": false,
            "containsImage": false,
            "imageURL": "null",
            "containsPassage": false,
            "passage": "null",
            "answers": [  
                {
                    "answer": "John: N40 Dr, Cash: 40 Cr.",
                    "correct": true,
                    "selected": false
                },
                {
                    "answer": " Cash: N40 .",
                    "correct": false,
                    "selected": false
                },
                {
                    "answer": "John: N20 Dr, Cash: N20 Cr.",
                    "correct": false,
                    "selected": false
                },
                {
                    "answer": " Cash: 20 Dr, John: N20 Cr.",
                    "correct": false,
                    "selected": false
                }
             ]
        }
    ]
}